S/No,"Ticket ID","Customer Name","Telephone No",Email,"Business Type","Physical Address",Town,"Company Name",Category,Sub-category,Issue,Resolution,SLA,"Escalated to",Status,"Escalated on",Age,"Resolution Date"
1,1175,"Samuel Wanjugu",0722944694,,,Nairobi,Nairobi,,"Dealers complaints","Isuzu East Africa - Service","Samuel complains that the radiator pipe which was leaking was not checked and it leaked before he got home. The vehicle was overheating and its the issue that was written down. But the situation has not changed. The vehicle is JACUBS25GW7101517, KAM843L
",,,"Jascinta Magero",Pending,"2018-12-20 07:26:05","0 days",
2,1176,"Msitu Mgeni",0712333006,,,Nairobi,Nairobi,"Kenya Wildlife Services","Dealers complaints","Isuzu East Africa - Service","Msitu complains that despite servicing, the vehicle gears still do not work well. It takes too long to start in the morning. Like Gear 1 and Gear 2 do not work for the first 10KM. If the vehicle starts running on gear 1, it can only be changed to gear 2 after covering around 20KMs.",,,"Jascinta Magero",Pending,"2018-12-20 07:52:48","0 days",
3,1177,"David Kimani",0721489927,,,Nairobi,Nairobi,"PalmHouse Dairy","Dealers complaints","Isuzu East Africa - Service","I brought in the NKR; JAANKR66LF7100494: KCG506G and the mechanics tampered with the gear lever yet I had not said that it be checked because it was working alright. I had to take it elsewhere again for it to be rectified. I always bring the vehicle and I am charged for brake adjustment which has never been done on the vehicle. Whenever I ask why it is not done yet I am charged, I am taken in circles till I give up.
",,,"Jascinta Magero",Pending,"2018-12-20 07:59:14","0 days",
4,1178,"Jonathan kaposhi",0790005684,,,kajiado,Kitengela,,Sales,"Thika Motor Dealers Mlolongo","The customer would like to purchase a single cabin. Kindly assist",,,"Gladys Mugo",Pending,"2018-12-20 09:10:01","0 days",
5,1179,"Kimutai Enock",0716418232,enockimz113@gmail.com,,Nairobi,Nairobi,,Sales,"Isuzu East Africa Nairobi","The customer is interested in Exz Prime mover.Kindly assist",,,"Priscilla G. Mathiu",Pending,"2018-12-20 09:19:33","0 days",
6,1180,"Edwin Awimbo",0725791892,,,Nairobi,Nairobi,,Sales,"Isuzu East Africa Nairobi","The customer is interested in MV Bus (LWB 67 seater). Kindly assist",,,"Priscilla G. Mathiu",Pending,"2018-12-20 09:48:45","0 days",
7,1181,"Boniface Ndungu",0713447744,,,Nyandarua,Nyandarua,"SAI CARGO MASTERS LIMITED",Service,"Isuzu East Africa Nairobi","The customer is complaining that the vehicle is having a problem with the breaks, that is after the service that was done.
vehicle Reg:KCP651X
vin:JAANKR66LF7101348
",,,"Jascinta Magero",Pending,"2018-12-20 11:45:54","0 days",
