S/No,"Ticket ID","Customer Name","Telephone No",Email,"Business Type","Physical Address",Town,"Company Name",Category,Sub-category,Issue,Resolution,SLA,"Escalated to",Status,"Escalated on",Age,"Resolution Date"
1,1170,"Ken mwangi",0721599922,kenmwafrika@yahoo.com,,"Machakos County","athi river",,Parts,"Isuzu East Africa Nairobi","Ken would like to know if he can get an ignition key for his Dmax, TFR 54, 
KBK 071X.
JAATFR54H97109408.
",,,"George Oyoo",Pending,"2018-12-19 12:30:47","0 days",
2,1174,"Njau Kiboncho",0722985645/0732985645,,Education,Nairobi,Nairobi,"ST.Lawrence University",Service,"Isuzu East Africa Nairobi","The Customer is so frustrated,  the vehicle was brought for service but it took so much time and he paid a lot of money. Today the vehicle is having a problem and it can not power up he is stuck and he needs the vehicle to be checked by tomorrow at 8.30 AM in Karen. He requests we send a technician that is going to assist him. The registration number is KAV538X, His service advisor was Gregory.",,,"Jascinta Magero",Pending,"2018-12-19 18:18:51","0 days",
3,1168,"Samson Kamisi",0718370822,,,Nairobi,Nairobi,,Sales,"Isuzu East Africa Nairobi","The customer is complaining that the vehicle was purchased by 0729082012-BEN and he is the owner of the vehicle but when the vehicle was delivered to him after purchase it had half tank of full instead of a full tank and he would like to follow up on the same. Kindly assist
Registration number:KSC903L
VIN:JALFRR33LF7003951
",,,"Priscilla G. Mathiu",Pending,"2018-12-19 11:27:56","0 days",
4,1169,"Mike Njeru",0722753848,mkamavuria@gmail.com,,Nairobi,Nairobi,,Sales,"Isuzu East Africa Nairobi","Mike Njeru is interested in purchasing the MU X, however, he is in Mombasa for the holidays right now. He is requesting to be contacted by a sales person early next year.",,,"Priscilla G. Mathiu",Pending,"2018-12-19 11:28:37","0 days",
5,1171,"Amota Nyangera",0722323680,nyasaeamota@gmail.com,,Nairobi,CBD,,Sales,"Ryce East Africa Ltd Mombasa","Amota would like to like to purchase an Mux, kindly contact him",,,"AYUB MUSA",Pending,"2018-12-19 13:40:25","0 days",
6,1172,"Gitau Gikaru",0706803882,geoffreygitau87@gmail.com,,Nairobi,Nairobi,,Parts,"Isuzu East Africa Nairobi","The customer would like a quotation for Isuzu NHR engine or liner set. His vehicle is JAANHR55EA7106667
KBP923V. Send it to him on geoffreygitau87@gmail.com
","quotation has been sent to the customer",,"George Oyoo",Closed,"2018-12-19 15:00:15","0 days","2018-12-20 8:08:45"
7,1173,"Peter Mwangi",0757697600,,,Nakuru,Nakuru,,Sales,"ACMG - Africa Commercial Motors Group Ltd Nakuru","Mwangi would like to purchase a Truck, kindly contact him",,,"Lucy Njoki",Pending,"2018-12-19 17:35:31","0 days",
