Dealer,Branch,"Entry by","Transaction type","Customer name","Service advisor","Received date","Released date",WRKORDNO,"Reg No.","vin no","Driver name","Driver phone","Work scope","Survey status"
"MAC East Africa Ltd Kampala","MAC East Africa Ltd Kampala","Josphat Bogita",Services,"LEEDKEN GENERAL","Mercy waweru",2019-01-26,2019-01-26,HHSDLD2344324,KCP974J,JALFSR33HF7001383,"Baraka winji",09865434,"zXcvbvnb Szdxfcvbn szfdxdfg",
"MAC East Africa Ltd Kampala","MAC East Africa Ltd Kampala","Josphat Bogita",Services,"Cambridge School","monday test",2019-01-28,2019-01-28,,UAV964G,,"monday test",0723423457,"monday test monday test monday test monday test","success( Rejecting )"
"MAC East Africa Ltd Kampala","MAC East Africa Ltd Kampala","Josphat Bogita",Services,"Dhanjal ","Mercy waweru",2019-02-06,2019-02-06,sadfdgfgds,KBA108T,ADMDN13E684422751,ssssdsaff,0712345432q234,"test test","( Rejecting )"
