S/No,"Ticket ID","Customer Name","Telephone No",Email,"Business Type","Physical Address",Town,"Company Name",Category,Sub-category,Issue,Resolution,SLA,"Escalated to",Status,"Escalated on",Age,"Resolution Date"
1,1222,"He Piao",0733794662,,,Nairobi,Nairobi,"Cosmic Long Limited","Dealers complaints","Isuzu East Africa - Service","The vehicle engine is emitting smoke. This was to be looked into but when the customer picked it, there was no difference. Also, there is a pipe leakage that has been there before and after service. The customer was very disappointed with the service. His vehicle is SC KBZ801N: ADMARRDRXC4683980.
","Dear All,

I talked to the client last week and he agreed to have the vehicle delivered for the repairs not done during the December Holiday period. We had earlier agreed with the client that he takes the vehicle and avails it on Jan 2019 when we had full manpower to diagnose and repair the vehicle.

Kind regards,

Komen Kimtai
",,"Jascinta Magero",Closed,"2019-01-04 11:20:31","10 days","2019-01-15 8:43:02"
2,1248,"Joseph Kilonzo",0728876686,KILONZOM.JOSEPH@GMAIL.COM,,Makueni,Makueni,,Service,"Isuzu East Africa Nairobi","When I brought in the vehicle for service there was a door that was to be repaired. So I think when they were fixing the door it was placed next to a rough surface and so it was scratched. So the door will have to be painted again.  The back door. The vehicle is a Dmax DC, Reg No. 17CG006A and VIN ADMASCDR6C4694220. Kindly assist.

",,,"Jascinta Magero",Pending,"2019-01-09 07:42:35","6 days",
3,1224,"Steven Ondieki",0720754847,,,Nairobi,Airport,CID-Airport,"Vehicle Leasing","Vehicle Leasing","The customer contacted us with regards to his vehicle and he would like to do some follow up on the vehicle maintenance since every time he brings in the vehicle for service he comes to pick it up without any maintenance since he is being told the insurance need to clear it up first before any service is done. Kindly assist  ","2.	GKB 411T – this was an issue with accident – was involved in accident on top another accident before the first accident was repaired. This took more time with approval by Insurance. Vehicle now here – repairs have commenced. To be released next week.",,"Nicholas K. Kirui",Closed,"2019-01-04 15:05:17","6 days","2019-01-11 1:08:24"
4,1264,"Sadiq Mwangi",0723803802,,,Nairobi,Westlands,"Safaricom Ltd",Sales,"Isuzu East Africa Nairobi","The customer would like to know if his log book is ready so that he can come to collect it. The vehicle registration number is KCR094C.
",,,"Priscilla G. Mathiu",Pending,"2019-01-15 15:09:59","0 days",
5,1253,"Nyokabi Kinuthia",0728484283,Keunicenyokabi@gmail.com,,Nairobi,Nairobi,,Service,"Isuzu East Africa Nairobi","I had brought my bus for the free service and you noticed my vehicle had some other issues so I bought the parts that you asked me to replace and I brought the vehicle back to you for replacement and you fixed it. Soon after the driver is saying that the frame for the braking system he has to use it manually and the dashboard is blank, it's not indicating. The vehicle is an NPR bus and the Reg No. KBT772H. Kindly assist.","Booked for tomorro0w 12/01/2019",,"Jascinta Magero",Closed,"2019-01-10 10:13:35","0 days","2019-01-11 1:04:07"
6,1214,"Benjamin Ndonyo",0725112156,,,Kitui,Kanyonyo,"NPS LEASING INTERNAL ACCOUNT",Service,"Thika Motor Dealers Thika","The customer contacted us and he wanted to be booked in for service. He says he has two tire busts and he wanted his vehicle brakes to be checked. The vehicle is an FTS truck, Reg No. GKB422R and the VIN JALFTS33H97000675. He will be coming in at around 11:00 am today for the service. Kindly assist.","Service was done",,"Mercy Kiarie",Closed,"2019-01-02 08:28:10","6 days","2019-01-08 9:53:34"
7,1257,"Edwin Kinyanjui",0722814406,edwinkinyanjui@gmail.com,,Nairobi,"Upper Hill","White Bridge Solutions Limited","Dealers complaints","Isuzu East Africa - Service","Edwin complains that he has not yet received a health check report for their Dmax DC; KBQ908C which came in for the Dmax service clinic on the 18th December 2018. Kindly contact him.",,,"Jascinta Magero",Pending,"2019-01-14 12:33:32","1 days",
8,1216,"Jackson Nabs",0712729449,shalimarshg@gmail.com,,Naivasha,Naivasha,,Sales,"Isuzu East Africa Nairobi","Jackson requested for a quotation which he has not yet received. He is requesting for a quotation for FRR 51 seater and MV 123, 62 seater. He would like the quotation to include prices with insurance and the service offers. Please get back to him.","Quotation sent to customer by Paul Gitau",,"Priscilla G. Mathiu",Closed,"2019-01-03 09:13:36","11 days","2019-01-15 9:03:48"
9,1215,"Dennis Murimi",0726683513,,,"Kirinyaga County",Mwea,,Sales,"Thika Motor Dealers Karatina","Dennis is interested in purchasing an FRR with a fully enclosed body. Please contact him.","Good evening,
Concerning this escalation, one of the branch sale person  has been following up with this customer who is almost making an application.

Regards,
Mwangi.
",,"Dickson Mwangi",Closed,"2019-01-02 09:57:02","12 days","2019-01-15 8:44:18"
10,1217,"Githinji Mbogo",0724744021,githinjimbogo@gmail.com,,Kiambu,Ruaka,,Sales,"Thika Motor Dealers Ruaka","The customer contacted us via our USSD code requesting for a brochure of the N-Series trucks, he received it. He is interested in purchasing an NHR truck. Kindly assist."," He was to visit Ruaka on Saturday but he didn’t manage, I’ve called him again today 14th/01/19, he promised to come in the course of the week.",,"Michael Muriithi",Closed,"2019-01-03 09:46:07","11 days","2019-01-15 8:36:09"
11,1218,"Rogers Okumu",0723363376,,,Nairobi,Embakasi,,Service,"Isuzu East Africa Nairobi","You did not put the shocks on the rear end of the truck. The vehicle is an FRR truck, Reg No. KBU713N and VIN JALFRR33LA7001705. Kindly assist.

","GG,
Booked for tomorrow 12/01/2019
",,"Jascinta Magero",Closed,"2019-01-03 11:35:09","7 days","2019-01-11 1:06:21"
12,1219,"Peter Kariuki",0722847804,,,Laikipia,Nyahururu,,Service,"Isuzu East Africa Nairobi","My bag was opened and my trousers were stolen. I noticed this after leaving the workshop then I called the service advisor (Mutai) who said that they will check/ review CCTV and give me feedback but up to now no one has contacted me. There is also this box that is next to the door for holding sodas. Someone took my money Ksh 160. Up until now, I have not gotten any report. The vehicle is a Dmax SC, Reg No. KCP 404K and VIN ACVASRJR9H4002085. Kindly assist.

","GG,

I spoke to this client with intention of scheduling a meeting to understand the client's compliant

He says that he operates in Samburu and will only be available  during the next service although he feels that we should drop the issue because the complaint was meant for our information.

Regards

Jascinta
",,"Jascinta Magero",Closed,"2019-01-03 11:54:43","11 days","2019-01-15 8:45:18"
13,1221,"Charles Kasisi",0724724682,,,Nairobi,"South C","96318SIRI GURDWARA RAMGARHIA RAILWAYS","Dealers complaints","Isuzu East Africa - Service","Charles complains that his key boot got stolen. Also, the aircon knob was missing a nut that was to be fixed but now even the knob itself is missing. The vehicle body was repaired but not painted. So now there are parts of the vehicle that has the original yellow bus paint but other parts are white. His vehicle is NPR bus: KCB342Z,JAANIR66PC7102789.",,,"Jascinta Magero",Pending,"2019-01-04 11:16:05","11 days",
14,1220,"Bernard Efedha",0722793265,,,Meru,Maua,,Service,"Isuzu East Africa Nairobi","There is a problem with the wiring. The fuse for parking is not working. The vehicle is an FRR bus, Reg No. KCS 080Z and VIN JALFRR33LF7003916. Kindly assist.

",,,"Jascinta Magero",Pending,"2019-01-04 09:25:30","11 days",
15,1223,"Koech Kips",0780105525,abucheruiyot2016@gmail.com,,Bomet,Bomet,,Sales,"Isuzu East Africa Nairobi","The customer contacted us on Facebook and he wanted to get more information on the NQR bus. I sent him the brochure on Facebook but he also requested that we send it to him via his email. He also insisted that he wants to come to Isuzu East Africa to get the vehicle. Kindly assist.","The customer has been contacted and he is shopping for Bomet County.  He is happy with the information he has so far and will visit in the course of the month",,"Priscilla G. Mathiu",Closed,"2019-01-04 14:24:34","3 days","2019-01-08 9:44:06"
16,1225,"Kelvin Ocholla"," 0722836854",,,Mombasa,Mombasa,,Service,"Isuzu East Africa Nairobi","The customer brought in the vehicle for service on 24/12/2018 and he was promised to be contacted with regards to a part that was not available. The part is the cover of the roof rax of his Dmax and he would like to know if it's now available. Kindly assist 
Reg: KCH879T
Vin: ADMCSCDR1C4740996
","Dear All,

I have received the quote from Sairaj and shared it with the client an he is to review and give us a go ahead. Sairaj, the supplier had been out of office thus the delay.

Regards,

Komen Kimtai 
",,"Jascinta Magero",Closed,"2019-01-04 15:10:38","10 days","2019-01-15 8:43:37"
17,1226,"Cliff Joe",0726570344,,,Nairobi,Nairobi,,Sales,"Isuzu East Africa Nairobi","The customer contacted us via Facebook and he is interested in a bus but he is not sure if its a 33 seater or 26 seater. Kindly assist",,,"Priscilla G. Mathiu",Pending,"2019-01-04 16:44:36","11 days",
18,1227,"Nicholas Gertie",Facebook,gatei.nicholas@yahoo.com,,Nairobi,Nairobi,,Sales,"Isuzu East Africa Nairobi","The customer contacted us via facebook and he would like to get a quotation of a 33 seater bus chassis only. Kindly assist",Duplicate,,"Priscilla G. Mathiu",Closed,"2019-01-04 16:50:55","3 days","2019-01-08 9:55:02"
19,1228,"Nicholas Gatei",0722551227,gatei.nicholas@yahoo.com,,Nairobi,Nairobi,,Sales,"KCI - Kenya Coach Industries Nairobi","The customer contacted us via Facebook and he is interested in a 33 seater bus but has his own body type in mind that he would like to be considered during bodybuilding. Kindly assist ","Morning.

Attached please find scanned copy of our quotation for the Isuzu NQR 33 Seater Bus and photos to be forwarded to Nicholas Gartie.

Please note that the maridadi is charged as extra.

Kindly acknowledge receipt.  

Regards
",,"TIMOTHY OUKO",Closed,"2019-01-04 17:42:04","3 days","2019-01-08 9:57:09"
20,1229,"Christopher Kalonzo",0717961235,,,Kitui,Mwingi,,Sales,"Thika Motor Dealers Machakos","Christopher is interested in the 33 seater bus-for a matatu business. Kindly assist him.","Mr. Kalonzo has no Bank account and doesn’t want a cash purchase. He will open an account next month which he said he will build till October.",,"Winfred Mbuthia",Closed,"2019-01-05 12:52:58","9 days","2019-01-15 8:39:26"
21,1230,"Paul Ngoe",0727322055,paulngoe@yahoo.com,,Nairobi,Nairobi,,Sales,"Isuzu East Africa Nairobi","The customer contacted us on Facebook and he wanted to be sent for a quotation of the Isuzu FRR truck. Kindly assist.",,,"Priscilla G. Mathiu",Pending,"2019-01-07 06:46:18","8 days",
22,1231,"Nesbitt Masai",0717471201,,,Unknown,Unknown,,Sales,"Thika Motor Dealers Machakos","Nesbitt contacted us on facebook and she is saying she purchased her vehicle at Thika Motor Dealer Machokos but her vehicle seats are very uncomfortable and would like to know if there is something that can be done. 
The vehicle registration number is KCK 428G.
Kindly assist","He requested if its possible we have his DMAX seat covers changed. They are worn out and the unit is only at @71,000KM",,"Winfred Mbuthia",Closed,"2019-01-07 08:01:57","8 days","2019-01-15 8:40:01"
23,1232,"Nelson Githinji",0718857484,gituambafm@gmail.com,,Nairobi,Nairobi,,Sales,"Isuzu East Africa Nairobi","The customer contacted us after being contacted with regards to a request he had made via our USSD number. He said he would like to purchase an NQR chassis only truck and they are in the final decision making with his company. Kindly assist",,,"Priscilla G. Mathiu",Pending,"2019-01-07 08:45:44","8 days",
24,1233,"Rose Ndunda",0722620540,mbakie23@gmail.com,,Nairobi,Langata,,Sales,"KCI - Kenya Coach Industries Nairobi","The customer is interested in purchasing an MV bus 62 seater and the FRR 51 seater. Kindly assist. ",,,"TIMOTHY OUKO",Pending,"2019-01-07 09:09:55","8 days",
25,1244,"Felix Matheka",0725512481,felixmatheka1982@gmail.com,,"Makueni ","Makueni ",,Sales,"Thika Motor Dealers Machakos","Matheka would like to purchase a single cabin Dmax, kindly contact him.","He has an online quotation from IEA which he will present to his Bank when he is ready.",,"Winfred Mbuthia",Closed,"2019-01-08 14:55:59","6 days","2019-01-15 8:40:32"
26,1245,"Felix Matheka",0725512481,felixmatheka1982@gmail.com,,"Makueni ","Makueni ",,Sales,"Thika Motor Dealers Machakos","Matheka would like to purchase a single cabin Dmax, kindly contact him.","He has an online quotation from IEA which he will present to his Bank when he is ready.",,"Winfred Mbuthia",Closed,"2019-01-08 14:56:03","6 days","2019-01-15 8:40:46"
27,1246,"Felix Matheka",0725512481,felixmatheka1982@gmail.com,,"Makueni ","Makueni ",,Sales,"Thika Motor Dealers Machakos","Matheka would like to purchase a single cabin Dmax, kindly contact him.","He has an online quotation from IEA which he will present to his Bank when he is ready.",,"Winfred Mbuthia",Closed,"2019-01-08 14:56:11","6 days","2019-01-15 8:40:58"
28,1234,"Amos Kator",0780617616,,,"Uasin Gishu County.",Eldoret,,Sales,"Associated Motors Limited Eldoret","The customer is interested in purchasing the NPR truck. Kindly assist",,,"Erick Kirui",Pending,"2019-01-07 09:35:03","8 days",
29,1235,"Amos Kator",0780617616,,,"Uasin Gishu County.",Eldoret,,Sales,"Associated Motors Limited Eldoret","The customer is interested in purchasing the NPR truck. Kindly assist",,,"Erick Kirui",Pending,"2019-01-07 09:35:13","8 days",
30,1236,"Simon Kariuki",0729916501,kariukisimon64@gmail.com,,Kiambu,Juja,,Sales,"Thika Motor Dealers Thika","The customer is interested in purchasing an Isuzu FSR truck chassis only. Kindly assist.",,,"Betty Kariuki",Pending,"2019-01-07 09:53:19","8 days",
31,1237,"Amon Jay",0702673184,,,"Uasin Gishu County.",Eldoret,,Sales,"Associated Motors Limited Eldoret","The customer is interested in purchasing a truck but not sure which one between NPR and FRR. Kindly assist ",,,"Erick Kirui",Pending,"2019-01-07 09:55:12","8 days",
32,1238,"Samuel Ndegwa","0795320740 ",,,Nakuru,Nakuru,,Sales,"ACMG - Africa Commercial Motors Group Ltd Nakuru","The customer is interested in purchasing an NQR 33 SEATER BUS   SEMI LUXURY. Kindly assist.
",,,"Lucy Njoki",Pending,"2019-01-07 10:06:05","8 days",
33,1239,"Robert Isiche",0713220729,robrim2001@yahoo.com,,Nairobi,Nairobi,,Sales,"Ryce East Africa Ltd Nairobi","The customer is interested in purchasing an Isuzu FRR TRUCK   CHASSIS. He says he is out of the country so in case you cannot reach him you can send an SMS or email him.
",,,"IDA AKINYI",Pending,"2019-01-07 11:09:55","8 days",
34,1240,"Brian Omare",0714312999,rholtsatsa@gmail.com,,Nairobi,Nairobi,,Sales,"Isuzu East Africa Nairobi","The customer is interested in purchasing an Isuzu truck and he wants to choose from the N-series, F-series and the E-series. He says he will come to the offices to get more information so that he can make up his mind.",,,"Priscilla G. Mathiu",Pending,"2019-01-07 11:41:35","8 days",
35,1241,"John Njoroge",0724904111,,,Nairobi,Dagoretti,,Service,"Isuzu East Africa Nairobi","The customer called us after he received a missed call from our end with regards to the PSFU. He says that when he took the vehicle for service he requested for a plastic cover for the engine because as of now it looks really bad. He was told someone would get back to him once the part was found. The vehicle is a Dmax, Reg No. KCS 040U and VIN ACVCRRJR2J4018994. Kindly assist.

","Dear GG,

The vehicle does not have this provision but wants it fitted.

He had spoken to parts section initially

Jascinta
",,"Jascinta Magero",Closed,"2019-01-08 09:22:46","2 days","2019-01-11 1:05:14"
36,1242,"Tito Kiarie",0703379790,"Titokiarie@gmail.com ",,Kiambu,Thika,,Sales,"Thika Motor Dealers Thika","The customer contacted us on Facebook. He is interested and he wanted to be sent for a quotation of the Dmax single cabin. Kindly assist.","Good Morning,

I have spoken to Tito and he was making the enquiry on behalf of his mum who is upcountry. I have sent him a quotation on the same and he will discuss it with his mum once he visit her.

Regards,

Betty
",,"Betty Kariuki",Closed,"2019-01-08 14:03:10","6 days","2019-01-15 8:37:39"
37,1243,"John musyimi",0792564909,johnmutune2017@gmail.com,,Nairobi,Eastleigh,,Sales,"Isuzu East Africa Nairobi","Musyimi would like to purchase a single cabin Dmax, kindly get in touch with him.",,,"Priscilla G. Mathiu",Pending,"2019-01-08 14:44:16","7 days",
38,1247,"Augustine Ochieng",0729360816,,,Nairobi,Rongai,,Sales,"KCI - Kenya Coach Industries Nairobi","Augustine would like to purchase an NKR kindly contact him.","Afternoon Georgina, 

We engaged the client on the purchase of the Isuzu NKR bus, and we agreed with the client that he will be coming to our facility on Monday 14-01-2019 to view our units, and engage in further discussions on financing of the unit.

Thank you and we appreciate your support.

Regards, 

Joe Maina | Coordinator - Vehicles Sales
Kenya Coach Industries Ltd 
P.O Box 18354 - 00500 | Eastgate Road, off Mombasa Road | Nairobi | Kenya
Fax: (+254) 20 556 078 |  (+254 ) 20 553 770 |  (+254) 0722 237 231
Mobile: 0724 771 088 | 0743 156 711 | Web: www.kci.co.ke
 
",,"KCI Sales Team",Closed,"2019-01-08 17:44:06","6 days","2019-01-15 8:41:33"
39,1249,"Stephen Njuguna",0720208233,,Government,Baringo,Baringo,"NPS LEASING INTERNAL ACCOUNT","Vehicle Leasing","Vehicle Leasing","I had a problem with the oil gauge. When I left the service station I was told by the service advisor that they had fixed the problem. The vehicle almost went off on me while on the road because I thought it had fuel in it. In fact, it consumed 197 litres. So the problem was not fixed. I had also requested for all the six tyres to be fixed but that request was not approved. Also, work on time management. The vehicle is an FTS truck, Reg No. GKB498R and VIN JALFTS33H97000752. Kindly assist.

","Team,

Will follow up on the fuel gauge issue.

Tyres were supplied and fitted accordingly as per attached mails.

For time management, the tire supplier had closed the week he came.

Regards,

Nicholas.
",,"Nicholas K. Kirui",Closed,"2019-01-09 07:50:27","0 days","2019-01-09 3:37:36"
40,1250,"Abdulhaziz Ahmed",0722817482,,,Mombasa,Mombasa,,Service,"Isuzu East Africa Nairobi","The service was not complete. I had an issue with the winder which was bought from Bagda (the winder was already broken before I opened it). Bagda was to bring another winder so that it can be fixed but they didn't because they were saying that when I bought it the winder was in a good shape for which I doubt and it was opened at Isuzu and Isuzu (service advisors) saw that it was broken. I was told that Isuzu would request Bagda to send a new winder then I will be contacted. The vehicle is a Dmax DC, Reg No. G4816293 and VIN ADMCSCJR5G4816293. Kindly assist.

",,,"Jascinta Magero",Pending,"2019-01-09 07:57:24","6 days",
41,1251,"Peter nduguya",0720428482,,,Karatina,Karatina,,Sales,"Thika Motor Dealers Karatina","The customer would like to purchase an NQR Truck with fully build body.Kindly assist","Good afternoon,
We contacted the customer and he promised to visit our branch.


Regards,
Mwangi.
",,"Dickson Mwangi",Closed,"2019-01-09 08:14:53","0 days","2019-01-09 3:36:20"
42,1252,"Noel Templer",0728101259/0737243064,,,Kiambu,Sigona,,Sales,"Thika Motor Dealers Ruaka","The customer is interested in purchasing an Isuzu Double cabin. Kindly assist him.","Good morning, 
Acting on it.
",,"Michael Muriithi",Closed,"2019-01-09 11:11:44","0 days","2019-01-09 3:36:53"
43,1254,"Joseph Rotich","No Contact Facebook",josephrotich220@gmail.com,,Baringo,Baringo,,"Customer Enquiries",Communication,"The customer contacted us on Facebook and he said: "" I'm 27 years driver by my professional with class ABCE I have experience of 9yrs, my dream is to be a safari rally driver; my home county is Baringo and I was requesting sponsorship to fulfil my dream thank you God bless Isuzu Kenya"". Kindly assist.","This has been forwarded to the relevant teams for consideration",,"Linda Njiru",Closed,"2019-01-11 07:38:45","5 days","2019-01-16 9:44:26"
44,1255,"Suzanne Nungi",0722851597,"suewesh.sn@gmail.com	",,Rongai,Rongai,,Sales,"KCI - Kenya Coach Industries Nairobi","The customer would like to purchase NHR truck with the body on. Kindly assist","Good Morning,

I have contacted the client, she is planning her finances.

Regards 

Kirui Victor | Team Leader Vehicle Sales | Kenya Coach Indutries Ltd
",,"KCI Sales Team",Closed,"2019-01-11 10:54:08","3 days","2019-01-15 8:37:11"
45,1256,"Francis Oduor",0716268933,,,Siaya,Siaya,,Sales,"ACMG - Africa Commercial Motors Group Ltd Kisumu","The customer would like to purchase an FSR truck with a tipper body on. Kindly assist",,,"Yvonne Mengo",Pending,"2019-01-12 12:48:52","3 days",
46,1258,"Eliud Kipsang'",0725331388,,,Nairobi,Nairobi,,Service,"Isuzu East Africa Nairobi","There are some things that I wrote down like fixing the radio because it was not working and the temperature in the water is too high like when you look at the dashboard it's too high, it looks like it's about to reach the red mark. These were not fixed. Also when you put gear number three, it makes the vehicle so hard to control. I was given a mat only for one side that is for the driver's side. I was told to bring in the vehicle tomorrow so that the radio can be fixed. The vehicle is an FTR truck, Reg No. KCK996U and VIN JALFTR33HF7001366.

","Customer advised to bring back the vehicle to the workshop",,"Jascinta Magero",Closed,"2019-01-14 15:23:48","0 days","2019-01-15 9:14:56"
47,1263,"Dhanex Kemboi","0728448407 ",,,"Trans Nzoia County",Kitale,,Sales,"CFG KITALE","Dhanex is interested in purchasing the SC with banking finance. Kindly contact him.",,,"RICHARD KAMAU",Pending,"2019-01-15 14:27:51","0 days",
48,1259,"Mokogoti Osoro",0724049090,,,Nakuru,Molo,,Sales,"ACMG - Africa Commercial Motors Group Ltd Nakuru","Mokogoti would like to purchase an Isuzu bus either 26,29 or 33 seater for his school. Kindly contact him.",,,"Lucy Njoki",Pending,"2019-01-15 09:35:06","0 days",
49,1260,"Kiprono Edward.",0725395466,,,Kitui,Kitui,,Service,"Isuzu East Africa Nairobi","Edward brought his vehicle to be serviced two weeks ago, right now the gear does not engage ye, he reported the matter but he has not been assisted. Kindly contact him.","Team,

We just rescued this unit last month – similar issue – clutch issue on 13th Dec 2018.

Let me handle with our technical team,

Regards,

Nicholas.

From: Jascinta Magero 
Sent: Tuesday, January 15, 2019 11:49 AM
To: Nicholas K. Kirui <nicholas.kirui@isuzu.co.ke>
Cc: Georgina Gerwon <georgina.gerwon@isuzu.co.ke>; Patrick W. Mwangi <patrick.wanjohi@isuzu.co.ke>; Bernard N. Waweru <bernard.waweru@isuzu.co.ke>
Subject: FW: [EXTERNAL]CONTACT CENTRE CRM ESCALATION

Dear Nicholas,

This vehicle is in Kitui and can’t move GKB945T

I suspect it is a clutch problem

Please organize to rescue the customer

Jascinta
",,"Jascinta Magero",Closed,"2019-01-15 09:53:11","0 days","2019-01-16 9:08:29"
50,1261,"Charles Mugwimi",0719105259,,,"Kiambu County",Thika,"Aberdares National Park","Dealers complaints","Isuzu East Africa - Service","There was a water leakage on the dashboard which was not looked at. The blanket under the carpets on the floor of the vehicle was damp from the leakage making the vehicle smell. When the customer picked up the vehicle, it was still damp and the smell had even worsened. The vehicle was brought in with the engine not washed because the customer had done an oil top up. The engine had not been washed when he later picked up the vehicle. Also, top up was done on the vehicle and nobody explained to him why. The vehicle is Dmax SC KCP391K. Kindly contact him.
",,,"Jascinta Magero",Pending,"2019-01-15 12:14:41","0 days",
51,1262,"Dhanjal ",0722513520,,,Nairobi,Nairobi,"Kenya Coach Industries","Dealers complaints","Isuzu East Africa - Service","Dhanjal complains that his Hummer ADMDN13E684422751; KBA108T
 came in for service but came out with very many issues. The power steering system was not working when they picked up the vehicle yet it was perfectly alright when it was brought in. Some bottom sitting was also changed with those for another vehicle. Also, the dashboard was tampered with and the mileage was not configured such that it was reading a wrong mileage.




",,,"Jascinta Magero",Pending,"2019-01-15 12:31:47","0 days",
