S/No,"Ticket ID","Customer Name","Telephone No",Email,"Business Type","Physical Address","Company Name",Category,Sub-category,Issue,Resolution,SLA,"Escalated to",Status,"Escalated on",Age,"Resolution Date"
1,303,"Beatrice Wanjiru",0722930270,,,,,"Dealers complaints","Isuzu East Africa - Sales","Beatrice was not given the middle floor mats for her MUX,KCR330A which she purchased in July.Also please advice her on where she can purchase windbreakers for the MUX.","Hi Georgina,
I contacted Beatrice and promised to call her back on Monday with answers/solutions, kindly make some
time Monday morning we discuss the issues the customer has raised.
Thank you.
Kind Regards,
",,"Priscilla G. Mathiu",Closed,"2018-09-07 12:16:55","3 days","2018-09-11 9:18:59"
2,497,"Jackson Mwate","0736117307 and 0720028468",,,Kitui,,Sales,"Thika Motor Dealers Machakos","Interested in a single cab please contact with further assistance with regards to the promotion.",,,"Winfred Mbuthia",Pending,"2018-09-15 12:10:03","4 days",
3,280,"Erick Njue",0711231920,,,,,Sales,"Associated Motors Limited Meru","Erick wants to purchase a Dmax SC under the 60 day repayment holiday promotion.Please contact him","The customer contacted by Partick and assigned and salesperson",,"Patrick Wahome",Closed,"2018-09-06 08:45:14","3 days","2018-09-10 2:54:07"
4,281,"Timothy Kareithi",0714368159,,,Ruai,,Sales,"Thika Motor Dealers Ruaka","Customer called regarding the running promotion and would like to purchase a single cab TFR 86 SC (HR + AC). Kindly assist ",,,"Michael Muriithi",Pending,"2018-09-06 10:14:28","13 days",
5,282,"Lucas Odhiambo",0721851002,,,Karen,,Sales,"KCI - Kenya Coach Industries Nairobi","Lucas wants to purchase the FVR truck under the 60 day repayment holiday.Kindly contact him.",,,"TIMOTHY OUKO",Pending,"2018-09-06 10:18:19","13 days",
6,283,"Moses Gatonye",0722581229,,,Thika,,Sales,"Thika Motor Dealers Thika","The client is having a challenge with his gear and especially in the mornings. He experiences a hard shift of gear number two, which stops after he has driven for some time. The client would like to know if we have had similar complaints or it is unique to him and if it is a matter that requires attention. Kindly respond to him as soon as possible.","Good Afternoon,

I have forwarded the matter to aftersales who should assist him.

Regards,

Betty
",,"Betty Kariuki",Closed,"2018-09-06 13:03:45","4 days","2018-09-11 9:08:43"
7,284,"John Odere",0713068393,,,Embakasi,,Sales,"KCI - Kenya Coach Industries Nairobi","The client called with regards to the 60 days repayment promotion plan. He is interested in a single cab. I advised him but please contact him and advice further.",,,"Charles Kinuthia",Pending,"2018-09-06 13:08:12","13 days",
8,285,"Edward Mugambi",0721130670,,,Chogoria,,Sales,"Associated Motors Limited Meru","Customer called to inquire on the running promotion and is interested in a single cab. Kindly assist","Customer contacted by Partick and assigned and salesperson",,"Patrick Wahome",Closed,"2018-09-06 14:04:53","3 days","2018-09-10 2:57:13"
9,286,"Oscar Ngoji.","0722207378/ 0202005886",,Constuction,Buruburu,"Onab Electrical Limited",Sales,"Isuzu East Africa Nairobi","The client is interested in purchasing a truck, kindly get in touch with him.","Hi Georgina,
I spoke to Oscar yesterday.  He is interested in an FSR and we agreed that when he 
Is ready in the course of this month he will be visiting to enable us make an application
for asset financing for him to purchase the truck
Kind Regards,
Priscilla G. Mathiu",,"Priscilla G. Mathiu",Closed,"2018-09-06 14:52:52","4 days","2018-09-11 9:20:07"
10,287,"Korir Enock","0735061225/ 0714830680",,,"Nandi Hills",,Sales,"Associated Motors Limited Eldoret","The customer is interested in purchasing an NHR truck. kindly get in touch with him.","Unreachable -still following up
Sales person assigned Collins Opiyo
",,"Erick Kirui",Closed,"2018-09-06 15:45:41","12 days","2018-09-19 8:06:05"
11,288,"Peter Wanyoike",0720701477,,,Nairobi,,Service,"Isuzu East Africa Nairobi","The client would wish to bring in his vehicle(Dmax) for service on 11th at 7.30am. The vehicle registration number is KCH491K, ",,,"Jascinta Magero",Pending,"2018-09-06 16:12:27","13 days",
12,289,"David Onyancha",0736704469,,,Molo,,Sales,"ACMG - Africa Commercial Motors Group Ltd Nakuru","The client is interested in purchasing a pickup. Kindly get in touch with him.","Good afternoon,
The client is to avail statements coming week for finance at NIC bank.

Regards
",,"Lucy Njoki",Closed,"2018-09-06 17:27:44","4 days","2018-09-11 8:24:55"
13,290,"David Onyancha",0736704469,,,Molo,,Sales,"ACMG - Africa Commercial Motors Group Ltd Nakuru","The client is interested in purchasing a pickup. Kindly get in touch with him.","Good afternoon,
The client is to avail statements coming week for finance at NIC bank.

Regards
",,"Lucy Njoki",Closed,"2018-09-06 17:27:47","4 days","2018-09-11 8:25:40"
14,291,"Alex Kosgei",0722998441,,,Kabarnet.,,Sales,"Associated Motors Limited Eldoret","The client is interested in purchasing a truck. kindly get in touch with him.","Purchased second hand unit
",,"Erick Kirui",Closed,"2018-09-06 18:17:27","12 days","2018-09-19 8:06:37"
15,292,"James Mureithi",0721654000,,,,,Sales,"Associated Motors Limited Meru","The client called with regards to the 60 days repayment promotion plan and he is interested in a pickup. I advised him but please contact him and advice further.","The customer contacted by Partick and assigned and salesperson",,"Patrick Wahome",Closed,"2018-09-06 18:32:31","3 days","2018-09-10 2:59:42"
16,293,"James Odhiambo",0752205885,,,Rongo,,Sales,"ACMG - Africa Commercial Motors Group Ltd Kisii","James wants to purchase a Dmax SC 4*4 under the 60 day repayment holiday promotion.",,,"Erick Makori",Pending,"2018-09-07 07:01:20","12 days",
17,294,"Philemon Kipchoge",0731248829,,,,,Sales,"Associated Motors Limited Eldoret","Philemon wants to purchase a Dmax SC 4*4 under the 60 day repayment holiday.Kindly assist.","Sales person assigned Erick Kirui 
To be called in the evening and will bring statements.
",,"Erick Kirui",Closed,"2018-09-07 07:15:30","12 days","2018-09-19 8:07:14"
18,295,"Ambrose Mezzah",0722973936,,,Chogoria,,Sales,"Associated Motors Limited Meru","Ambrose wants to purchase a Dmax SC under the 60 day repayment holiday.Kindly assist.","The customer contacted by Partick and assigned and salesperson",,"Patrick Wahome",Closed,"2018-09-07 07:25:54","2 days","2018-09-10 3:05:02"
19,296,"Amos Kiremi",0719275167,,,Meru,,Sales,"Associated Motors Limited Meru","The customer called with regards to the running promotion 60 days repayment period and would like to purchase NHR TRUCK BODY ON. Kindly assist
","The customer contacted by Partick and assigned and salesperson",,"Patrick Wahome",Closed,"2018-09-07 09:29:08","2 days","2018-09-10 3:09:44"
20,297,"Erick Muenda",0704852167,,,Meru,,Sales,"Associated Motors Limited Meru","The customer called to inquire on the running promotion 60 days repayment period and is interesting in a single cab .kindly assist","The customer contacted by Partick and assigned and salesperson",,"Patrick Wahome",Closed,"2018-09-07 09:59:00","2 days","2018-09-10 3:15:16"
21,298,"David Njau",0722620113,danjabd@gmail.com,,,"DANJA BUILDERS & CIVIL ENG LTD","Dealers complaints","Isuzu East Africa - Service","Mr David complains that he is usually charged for servicing despite his vehicle being on the free service for 1 year/50,000 kms programme.He has not covered the total mileage for the expiry of the programme.Kindly contact him and explain to him",,,"Jascinta Magero",Pending,"2018-09-07 10:02:17","12 days",
22,299,"Lucy Nyambura",0721648107,,,Limuru,,"Dealers complaints","TMD- Thika Motor Dealers","The vehicle's clutch is high such that it switches off unecessarily. The vehicle was bought on 30th Nov 2017.Kindly assist.","Lucy Nyambura will take her vehicle to TMD-Ruaka Branch tomorrow for the clutch adjustment.",,"Njambi Kimiti",Closed,"2018-09-07 10:29:26","11 days","2018-09-19 2:43:14"
23,300,"Alex Gichui",0721433056,,,,"EQUITORIAL ENGINEERING WORKS LTD","Dealers complaints","TMD- Thika Motor Dealers","Alex says his cabin has full weakness.He communicated the same when he brought in the vehicle for service at TMD, Thika and after the repairs the cabin now has lock issues and it lets in water.","- Talked to the customer and agreed to take the vehicle to the body builder for repairs 

",,"Njambi Kimiti",Closed,"2018-09-07 10:48:01","11 days","2018-09-19 2:44:14"
24,301,"Sylvia Bett",254799538198,,,,,Sales,"Associated Motors Limited Eldoret","Sylvia wants to purchase a Dmax SC 4*2 under the 60 day repayment holiday promotion","was just enquiring but when ready will keep intouch with us.",,"Erick Kirui",Closed,"2018-09-07 11:07:00","11 days","2018-09-19 2:18:44"
25,302,"Peter Kariuki",0723212198,,,Westlands,,Sales,"Thika Motor Dealers Ruaka","The customer would like to purchase a single cab under the 60 days repayment promotion. Kindly assist ",,,"Michael Muriithi",Pending,"2018-09-07 11:23:13","12 days",
26,304,"Martin Njie",0772672985,,,Ruai,,Sales,"Isuzu East Africa Nairobi","The client is interested in purchasing a Dmax single cab. Kindly get in touch with him.","Hi Georgina,

Spoke to Martin,  he says he will make a visit end of next week.  He says he is in the miraa business.



Kind Regards,

Priscilla G. Mathiu
",,"Priscilla G. Mathiu",Closed,"2018-09-07 12:37:42","3 days","2018-09-11 9:16:53"
27,305,"Benson Kiruga",0724431141,,,,,Sales,"Thika Motor Dealers Thika","The client called with regards to the 60 days repayment promotion plan and he is interested in a single cab. please contact him as soon as possible to enable him to decide whether its a 4*4 or a 4*2 that he wants.",,,"Betty Kariuki",Pending,"2018-09-07 15:27:27","12 days",
28,306,"Kelvin Kariuki",0725954109,,,Limuru,,Sales,"Thika Motor Dealers Ruaka","The client is interested in purchasing a Dmax single cab, Kindly get in touch with him.",,,"Michael Muriithi",Pending,"2018-09-07 15:46:52","12 days",
29,307,"Elly Otieno",0778635283/0712111482,,,Obama,,Sales,"Isuzu East Africa Nairobi","The client is interested in purchasing a single cab Dmax, Kindly get in touch with him. ","Hi Georgina,

Have spoken to Elly,  given him info on pick up
Says he will plan to visit in the course of the month.



Kind Regards,

Priscilla G. Mathiu
",,"Priscilla G. Mathiu",Closed,"2018-09-07 17:01:47","3 days","2018-09-11 9:15:52"
30,308,"Nolive Onyango",0715325551,,,,,Sales,"AM - Associated Motors Limited Nairobi","called with regards to the 60 days repayment promotion plan interested in a Dmax please contact as soon as possible and advise further.",,,"John Kilonzo",Pending,"2018-09-07 17:16:56","12 days",
31,309,"Nolive Onyango",0715325551,,,,,Sales,"Isuzu East Africa Nairobi","The client would wish to purchase a single cab Dmax, Kindly get in touch with him.","duplicate 308",,"Priscilla G. Mathiu",Closed,"2018-09-07 17:44:14","3 days","2018-09-11 9:11:10"
32,310,"Joash baiwa",0722926619,joasheaiywo@gmail.com,,,,Sales,"Associated Motors Limited Eldoret","The client is interested in our Dmax but he is ye to choose between a double and a single cab. he would like to be contacted as soon as possible with further assistance.",,,"Erick Kirui",Pending,"2018-09-07 17:55:18","12 days",
33,311,"Mourice Ochieng.","0781687706/ 0727367915",,,Kisumu,,Sales,"ACMG - Africa Commercial Motors Group Ltd Kisumu","The client would like to purchase a pickup under the promotion, kindly get in touch with him.",,,"Mohamed Adballah",Pending,"2018-09-07 19:57:35","12 days",
34,312,"Steven Obondi",0739807467/0705836262,,,Kiboswa,,Sales,"ACMG - Africa Commercial Motors Group Ltd Kisumu","The client is interested in purchasing a single cab Dmax pickup under the promotion. Kindly get in touch with him.",,,"Mohamed Adballah",Pending,"2018-09-08 09:47:21","11 days",
35,313,"Erick Omondi",0721994298,,,Nairobi,,Sales,"Isuzu East Africa Nairobi","Customer called with regards to the running promotion 60 days repayment period and he would like to purchase a bus and since it's not on the promotion he suggest to get a truck and build a body on it. Kindly assist ",,,"Priscilla G. Mathiu",Pending,"2018-09-08 10:52:03","11 days",
36,314,"Wanyama Trema","0725984726/ 0765083797",,,Ruiru,,Sales,"Thika Motor Dealers Thika","The customer would like to purchase a single Dmax single cab, kindly get in touch with him.",,,"Betty Kariuki",Pending,"2018-09-08 11:15:20","11 days",
37,491,"Ezekiel Shikoli",0722334667,,,Nairobi,,Sales,"AM - Associated Motors Limited Nairobi","Ezekiel is interested in the DMax SC with regards to the 60 day repayment holiday promotion.",,,"John Kilonzo",Pending,"2018-09-15 10:18:56","4 days",
38,315,"Paul Mihang'o",0780881394,,,Kiambu,,Sales,"Thika Motor Dealers Ruaka","The customer called with regards to the running promotion and he would like to purchase NPR truck. Kindly assist",,,"Michael Muriithi",Pending,"2018-09-08 17:04:08","11 days",
39,316,"Evans Nyakweba",0712752465,,,"Ridgeways ",,Sales,"Isuzu East Africa Nairobi","The client called with regards to the 60 days repayment promotion plan and is interested in a single cab. He would like to be contacted tomorrow with further details and assistance.",,,"Priscilla G. Mathiu",Pending,"2018-09-09 08:57:28","10 days",
40,317,"Chepkwony Kipsang'",0734460540,,,,,Sales,"ACMG - Africa Commercial Motors Group Ltd  Kericho","According to the promotion the client is interested in a pickup. contact him as early as tomorrow and advice further.","was just enquiring but when when ready will keep in touch with us.",,"Sylvia Omolloh",Closed,"2018-09-09 14:13:40","9 days","2018-09-19 2:26:04"
41,318,"Stanley Kipkorir",0725865634,,,,,Sales,"Thika Motor Dealers Mlolongo","The client is interested in a pickup in relation to the promotion. please contact him as soon as possible and advice further.",,,"Gladys Mugo",Pending,"2018-09-09 14:24:25","10 days",
42,319,"Clement Koech",0711615630,,,,,"Sales Lead","Field sales - Mt Kenya and Coast Region","I called the client again and he is interested in our pickups but he is yet to make a decision. he didn't request for a dealer but since he is interested its a sales lead.","Dear charles,
A very good morning to you.I hope this finds you well.Following our conversation for the sales lead follow up,I have called the client today morning regarding the same .But he is still in preparation to purchase it ,once he is ready he will get back to me.I mark it as my warm prospect for  follow up I will keep you updated for the closure of the deal.

Lorna Natasha
Sales Isuzu kci.
",,"Charles Kinuthia",Closed,"2018-09-09 14:47:47","1 days","2018-09-11 9:27:38"
43,320,"Bethuel Kiplimo",0720876150,,,Kapsabet,,Sales,"Associated Motors Limited Eldoret","Bethuel wants to purchase an NQR bus.Kindly assist him.",,,"Erick Kirui",Pending,"2018-09-09 15:18:04","10 days",
44,321,"Anthony Nyongesa","0724862963 and 0753463671",,,,,Sales,"Thika Motor Dealers Ruaka","The client is interested in a single cab with regards to the promotion. please contact him tomorrow and advice further.",,,"Michael Muriithi",Pending,"2018-09-09 16:32:01","10 days",
45,322,"Nicholas Onyango",0705187375/0738528296,,,,,Sales,"KCI - Kenya Coach Industries Nairobi","Nicholas wants to purchase a Dmax DC manual under the 60 day repayment holiday.Kindly contact him.",,,"TIMOTHY OUKO",Pending,"2018-09-09 17:06:29","10 days",
46,323,"Shadrack Moseti",0736017430,,,,,Sales,"Field sales - Mt Kenya and Coast Region","The client is interested in a truck but he has not decided. He said he will contact us once he has made his mind.",,,"Charles Kinuthia",Pending,"2018-09-10 07:14:52","9 days",
47,324,"Caleb Kisendi",0712869387,,,"Kapsabet ",,Sales,"Associated Motors Limited Eldoret","The customer is interested in the running promotion 60 days repayment period and would like to purchase TFR 86 SC (HR + AC). Kindly assist
",,,"Erick Kirui",Pending,"2018-09-10 07:32:11","9 days",
48,325,"Pamela Kamonde",0725988576,,,Chogoria,,Sales,"Associated Motors Limited Meru","The client is interested in a pickup after listening to our promotion on a radio station. Please contact her as soon as possible with further assistance.",,,"Patrick Wahome",Pending,"2018-09-10 07:36:34","9 days",
49,326,"Joseph Kelule",0728153168,,,Machakos,,Sales,"Thika Motor Dealers Mlolongo","Joseph is interested in the running promotion 60 days repayment period and would like to purchase TFR 86 SC (HR + AC). Kindly assist 
",,,"Gladys Mugo",Pending,"2018-09-10 08:18:52","9 days",
50,380,"Josiah Kiptoo",0745699739,,,,,Sales,"Associated Motors Limited Eldoret","Josiah wants to purchase an FRR under the 60 day repayment holiday promotion.",,,"Erick Kirui",Pending,"2018-09-11 17:58:19","8 days",
51,327,"Benson Mwangi",0774492280,,,,,Sales,"Thika Motor Dealers Thika","The client is interested in an FRR Truck this is with regards to the running promotion. contact him and advise further.",,,"Betty Kariuki",Pending,"2018-09-10 08:51:45","9 days",
52,372,"Amos ",0720303441,,,Isley,,Sales,"AM - Associated Motors Limited Nairobi","The customer would like to purchase a  33 seater bus kindly get in touch with him.",,,"John Kilonzo",Pending,"2018-09-11 12:38:06","8 days",
53,328,"Josarem Thomas",0722829696,,,Eldoret,,Sales,"Associated Motors Limited Eldoret","The customer is interested in the running promotion and would like to purchase a single cab. Kindly contact him as soon as you can as he is ready to deposit the money.","Got decline from NIC,will apply after 3 months",,"Erick Kirui",Closed,"2018-09-10 09:15:48","8 days","2018-09-19 7:57:08"
54,329,"Jared Maranga",0728807490,,,Uthiru,,Sales,"Thika Motor Dealers Ruaka","The client is interested in a pickup with regards to the promotion. contact him and advice further.",,,"Michael Muriithi",Pending,"2018-09-10 09:17:24","9 days",
55,330,"Geoffrey Achieng",0787160253,,,Kisumu,,Sales,"ACMG - Africa Commercial Motors Group Ltd Kisumu","The customer is interested in the running promotion and would like to purchase TFR 86 SC (HR + AC). Kindly assist
",,,"Mohamed Adballah",Pending,"2018-09-10 10:31:26","9 days",
56,331,"James Omondi",0720226580,,,CBD,,"Sales Lead","Field sales - Mt Kenya and Coast Region","The client is interested in our vehicles but he has not decided.",,,"Charles Kinuthia",Pending,"2018-09-10 10:37:04","9 days",
57,336,"Anthony Ngung'u",0735119144,,,,,Service,"Service Booking","The client is booking in for service on behalf of Mary Ndarwa for next week Tuesday.",,,"Jascinta Magero",Pending,"2018-09-10 10:59:54","9 days",
58,335,"Anthony Ngung'u",0735119144,,,,,Service,"Service Booking","The client is booking in for service on behalf of Mary Ndarwa for next week Tuesday.","Duplicate ",,"Jascinta Magero",Closed,"2018-09-10 10:56:37","0 days","2018-09-10 11:11:06"
59,337,"Josephat Bundi",0797067667,,,"Mikinduri ",,Sales,"Associated Motors Limited Meru","The customer is interested in the running promotion 60 days repayment period and would like to purchase TFR 86 SC (HR + AC)
.Kindly assist ",,,"Patrick Wahome",Pending,"2018-09-10 11:36:54","9 days",
60,338,"Silas Kariuki",0725491561,,,Laikipia,,Sales,"Associated Motors Limited Meru","The customer is interested in the running promotion 60 days repayment period and would like to purchase TFR 86 SC (HR + AC)
.Kindly assist ",,,"Patrick Wahome",Pending,"2018-09-10 11:50:04","9 days",
61,339,"Maurice Ochieng",0787854522,,,,,Sales,"ACMG - Africa Commercial Motors Group Ltd Kisumu","The client is interested in a pickup and would like to be contacted as soon as possible with more details and further assistance this is with regards to the promotion.",,,"Mohamed Adballah",Pending,"2018-09-10 11:51:13","9 days",
62,340,"David Mugo",0723547292,,,,,Sales,"ACMG - Africa Commercial Motors Group Ltd Nakuru","David wants to purchase Dmax SC under the 60 day repayment holiday.Kindly assist him.",,,"Lucy Njoki",Pending,"2018-09-10 12:17:20","9 days",
63,341,"Chris Owino","0789146172 and 0721361743",finance@manipalea.com,,,Manipal,Service,"Isuzu East Africa Nairobi","The client called asking if he can get an invoice of a vehicle he brought in for service last week. please advice.",,,"Jascinta Magero",Pending,"2018-09-10 12:24:07","9 days",
64,342,"Jacob Njoroge",0738713473,,,Zimmerman,,"Sales Lead","Field sales - Mt Kenya and Coast Region","The client called with regards to the running promotion and would like to purchase a single cab.","Hi Charles. 

We have spoken. He had stopped the purchase to work on his finances.
He says I check in Oct or if he gets the d3posit before he'll call me.. 

Many thanks for the lead . I appreciate your support.

Regards
Agnes 
",,"Charles Kinuthia",Closed,"2018-09-10 12:28:58","0 days","2018-09-11 9:36:08"
65,343,"Henry Mugambi",0700757547,,,,,Sales,"ACMG - Africa Commercial Motors Group Ltd Nakuru","Henry wants to purchase a Dmax SC 4*4 under the 60 day repayment holiday promotion.Kindly assist him.",,,"Lucy Njoki",Pending,"2018-09-10 13:28:24","9 days",
66,344,"joseph Murunga",0753758563,,,Kisii,,Sales,"ACMG - Africa Commercial Motors Group Ltd Kisii","The customer is interested in the running promotion 60 days repayment period and would like to purchase a single cab .
",,,"Erick Makori",Pending,"2018-09-10 14:40:54","9 days",
67,345,"Charles Nyota",0786598357,,,Ngara,,Sales,"Isuzu East Africa Nairobi","The client is interested in purchasing a Dmax, kindly get in touch with him.",,,"Priscilla G. Mathiu",Pending,"2018-09-10 15:22:59","9 days",
68,346,"Caleb Rono",0717120422,,,Eldoret,,Sales,"Associated Motors Limited Eldoret","The customer called with regards to the running promotion and would like to purchase a Dmax. Kindly get in touch with him.","Unreachable -still following up Assigned salesperson Benard Wichenje
",,"Erick Kirui",Closed,"2018-09-10 15:48:52","8 days","2018-09-19 7:57:54"
69,347,"Philip Kimani",0722512261,,,,"Racecourse Electrical cable distributors",Sales,"KCI - Kenya Coach Industries Nairobi","Philip wants to purchase a Dmax SC 4*2. Please assist him.",,,"TIMOTHY OUKO",Pending,"2018-09-10 16:51:40","9 days",
70,348,"Ambrose Onyancha",0725509246,,,Komarock,,Sales,"CFG NAIROBI","Ambrose wants to purchase a Dmax SC 4*2 under the 60 day repayment holiday promotion.","The customer is to visit the dealer today",,"GILBERT MUTULU",Closed,"2018-09-10 17:04:37","1 days","2018-09-12 10:32:56"
71,349,"Gregory Peter",0772887972,,,,,Sales,"Associated Motors Limited Eldoret","Gregory wants to purchase a Dmax DC under the 60 day repayment holiday promotion.","To Bring Equity Statements on Friday from Kapsabet Assigned salesperson Benard Wichenje

",,"Erick Kirui",Closed,"2018-09-10 17:30:01","8 days","2018-09-19 7:58:43"
72,350,"Martin Kipkemboi",0703541942,,,Baringo,,Sales,"Associated Motors Limited Eldoret","The client is interested in purchasing a truck under the running promotion, kindly get in touch with him.","Unreachable -still following up assigned sales person Benard Wichenje

",,"Erick Kirui",Closed,"2018-09-10 17:52:38","8 days","2018-09-19 7:59:40"
73,351,"Julius Kibet",0724492874,,,,,Sales,"Associated Motors Limited Eldoret","Julius wants to purchase a Dmax SC 4*2 under the 60 day holiday promotion. Kindly contact him.","Buying for a sacco so putting documentation  in order sales person assigned Benard Wichenje

",,"Erick Kirui",Closed,"2018-09-10 17:59:34","8 days","2018-09-19 8:00:30"
74,352,"Patrick Mwangi",0720580386,,,Nyahururu,,Sales,"ACMG - Africa Commercial Motors Group Ltd Nakuru","Patrick would like to purchase a single cab Dmax, kindly get in touch with him.",,,"Lucy Njoki",Pending,"2018-09-10 18:14:14","9 days",
75,353,"Robert Odhiambo",0722719752,,,,,"Sales Lead","Field sales - Mt Kenya and Coast Region","Robert is interested in purchasing an NQR truck under the 60 day repayment holiday promotion.",,,"Charles Kinuthia",Pending,"2018-09-10 18:42:10","9 days",
76,354,"Samson Gitonga",0773916305,,,,,Sales,"ACMG - Africa Commercial Motors Group Ltd Nakuru","Samson is interested in purchasing a Dmax under the 60 day repayment holiday promotion.",,,"Lucy Njoki",Pending,"2018-09-10 18:44:30","9 days",
77,355,"Benerd Juma.",0788479733,,,Kisumu,,Sales,"ACMG - Africa Commercial Motors Group Ltd Kisumu","The client is interested in purchasing a single cab Dmax, kindly get in touch with him.",,,"Mohamed Adballah",Pending,"2018-09-10 19:03:09","9 days",
78,356,"Aloice Odhiambo",0754809361,,,,,Sales,"ACMG - Africa Commercial Motors Group Ltd Kisumu","Aloice wants to putchase a Dmax SC under the 60 day repayment holiday promotion.",,,"Mohamed Adballah",Pending,"2018-09-10 19:04:27","9 days",
79,357,"Fred Nyandego"," 0716578451",,,"Mombasa ",,Sales,"Associated Motors Limited Mombasa","The client would like to purchase a single cab Dmax under the running Promotion.",,,"Francis Bob Makau",Pending,"2018-09-11 07:04:44","8 days",
80,358,"Ngugi Karemi",0708822034,,,,,"Sales Lead","Field sales - Mt Kenya and Coast Region","The client called after hearing the promotion over the radio he just enquired about the vehicle prices and he will call later to inquire about the promotion.",,,"Charles Kinuthia",Pending,"2018-09-11 08:21:11","8 days",
81,359,"Rev Patrick",0731059808,,,,,Sales,"Associated Motors Limited Meru","The reverend is interested in a double cab. I have advised him on prices but contact him with further assistance with regards to the promotion.",,,"Patrick Wahome",Pending,"2018-09-11 09:21:36","8 days",
82,360,"Edward Akuri","0737481067 and 0707801354",,,,,Sales,"ACMG - Africa Commercial Motors Group Ltd Nakuru","The client is interested in a single cab with regards to the promotion. please contact him and give further assistance.",,,"Lucy Njoki",Pending,"2018-09-11 09:37:30","8 days",
83,361,"Samuel Cheruiyot",0716421411,,,,,Sales,"Associated Motors Limited Eldoret","The client is interested in one of our vehicles. please contact him and give further assistance with regards to the promotion.","To bring statements on Monday
Sales person assigned Benard Wichenje
",,"Erick Kirui",Closed,"2018-09-11 10:09:16","7 days","2018-09-19 8:01:17"
84,362,"Justine Mwenda",0719263810,,,Meru,,Sales,"Associated Motors Limited Meru","Justine would like to purchase a 4*4 single cab, kindly get in touch with him.",,,"Patrick Wahome",Pending,"2018-09-11 10:31:29","8 days",
85,363,"Joseph Mare.",0739577750,,,Huruma,,Sales,"CFG NAIROBI","The client would like to purchase a Dmax, double cab. Kindly get in touch with him.","Customer to visit the dealer in the course of the week",,"GILBERT MUTULU",Closed,"2018-09-11 11:26:05","0 days","2018-09-12 10:31:36"
86,364,"John Baraza","0735850654 and 0718139788",,,Mungachi,,Sales,"ACMG - Africa Commercial Motors Group Ltd Kisumu","The client is interested in a single cab with regards to the promotion please contact him and advise further.",,,"Mohamed Adballah",Pending,"2018-09-11 11:27:31","8 days",
87,365,"Charles Katiko",0720749183,,,Naivasha,,Sales,"Thika Motor Dealers Ruaka","Mr. Charles would like to purchase a Dmax under the running promotion. Please get in touch with him.",,,"Michael Muriithi",Pending,"2018-09-11 11:31:48","8 days",
88,366,"Charles Katiko",0720749183,,,Naivasha,,Sales,"Thika Motor Dealers Ruaka","Mr. Charles would like to purchase a Dmax under the running promotion. Please get in touch with him.",Duplicate,,"Michael Muriithi",Closed,"2018-09-11 11:32:34","0 days","2018-09-12 7:33:58"
89,369,"Charles Katiko",0720749183,,,Naivasha,,Sales,"Thika Motor Dealers Ruaka","Mr. Charles would like to purchase a Dmax under the running promotion. Please get in touch with him.",Duplicate,,"Michael Muriithi",Closed,"2018-09-11 11:36:06","0 days","2018-09-12 7:34:41"
90,367,"Joseph Githinji",0782986076,,,"Kayole ",,Sales,"Isuzu East Africa Nairobi","The client is interested in both a pickup and a truck. Please contact him with further assistance and details.","Hi Georgina,

We have spoken to Joseph Githinji, he works with Flora Bakeries near Kayole he is a driver and is thinking of
his own truck.  From the discussion, he is looking at ways of raising funds and will be coming to our offices
sometime in the month.Kind Regards,
",,"Priscilla G. Mathiu",Closed,"2018-09-11 11:32:55","0 days","2018-09-11 2:35:07"
91,368,"Joseph Githinji",0782986076,,,"Kayole ",,Sales,"Isuzu East Africa Nairobi","The client is interested in both a pickup and a truck. Please contact him with further assistance and details.","Duplicate 367",,"Priscilla G. Mathiu",Closed,"2018-09-11 11:33:42","0 days","2018-09-11 2:35:30"
92,370,"Tirop Alfred",0710758857,,,Nakuru,,Sales,"ACMG - Africa Commercial Motors Group Ltd Nakuru","Mr. Tirop would like to purchase a single cab Dmax under the running promotion. Kindly get in touch with him.",,,"Lucy Njoki",Pending,"2018-09-11 11:46:37","8 days",
93,371,"Benerd Agaya",0731883939,,,Siaya,,Sales,"ACMG - Africa Commercial Motors Group Ltd Kisumu","The client would like to purchase a single cab Dmax under the running promotion, kindly get in touch with him.",,,"Mohamed Adballah",Pending,"2018-09-11 12:19:51","8 days",
94,373,"Edward Mungai",0722258471,,,,,Sales,"Thika Motor Dealers Thika","customer wants to purchase a Dmax SC 4*4.Kindly contact him.",,,"Betty Kariuki",Pending,"2018-09-11 13:25:45","8 days",
95,374,"Daudi Abdi",0717904224,,,,,Sales,"ACMG - Africa Commercial Motors Group Ltd Nakuru","Customer wants to purchase a dmax SC 4*4 under the 60 day repayment holiday promotion.",,,"Lucy Njoki",Pending,"2018-09-11 13:33:25","8 days",
96,375,"Dinarius Mbiloi",0728429291,,,,,Sales,"Thika Motor Dealers Thika","customer wants to purchase NHR cab under the 60 day repayment holiday promotion.","He is still weighing on whether to purchase an NHR or an NKR. He will be visiting us on Monday.",,"Betty Kariuki",Closed,"2018-09-11 15:00:10","8 days","2018-09-20 7:10:48"
97,376,"Daniel Ng'eno",0721245668,,,,,"Sales Lead","Field sales - Mt Kenya and Coast Region","Daniel is interested in a Dmax SC 4*2. Kindly contact him",,,"Charles Kinuthia",Pending,"2018-09-11 15:43:49","8 days",
98,377,"Robbert Omondi",0755989568,,,"Homa Bay",,Sales,"ACMG - Africa Commercial Motors Group Ltd Kisii","The customer is interested in the running promotion 60 days repayment period and would like to purchase a single cab
.Kindly assist 
",,,"Erick Makori",Pending,"2018-09-11 16:06:00","8 days",
99,378,"Elijah Limo",0729329533,,,,,Sales,"Associated Motors Limited Eldoret","Elijah wants to purchase a Dmax SC 4*2 under the 60 days repayment holiday promotion.","Has no statements and deposit.
Assigned sales person  Hilary Rotich
",,"Erick Kirui",Closed,"2018-09-11 17:08:31","7 days","2018-09-19 8:02:01"
100,379,"Meshack Alila",0733244306,,,Gilgil,,Sales,"ACMG - Africa Commercial Motors Group Ltd Nakuru","The customer is interested in the running promotion 60 days repayment period and would like to purchase TFR 86 SC (HR + AC)
.Kindly assist 
",,,"Lucy Njoki",Pending,"2018-09-11 17:48:13","8 days",
101,381,"Antony Njangi",0714654640,,,Meru,,Sales,"Associated Motors Limited Meru","The customer is interested in the running promotion 60 days repayment period and would like to purchase TFR 86 SC (HR + AC)
.Kindly assist 
",,,"Patrick Wahome",Pending,"2018-09-11 18:30:23","8 days",
102,382,"Ibrahim Nguta",0723144546/0738211796,,,,,Sales,"ACMG - Africa Commercial Motors Group Ltd Kisii","Ibrahim wants to purchase a Dmax SC under the 60 day repayment holiday promotion.",,,"Erick Makori",Pending,"2018-09-11 18:58:32","8 days",
103,383,"Steven Kamenju",0715728950,,,Mau,,Sales,"Associated Motors Limited Meru","Customer called the call disconnected and I called back. The customer is interested in the running promotion 60 days repayment period and would like to purchase TFR 86 SC (HR + AC)
.Kindly assist 
",,,"Patrick Wahome",Pending,"2018-09-11 19:22:51","8 days",
104,384,"William Odhiambo",0725868344,,Butchery,Fedha,"Toplife butchery",Sales,"Ryce East Africa Ltd Nairobi","William wants to purchase a Dmax SC under the 60 day repayment holiday promotion.",,,"IDA AKINYI",Pending,"2018-09-11 19:56:00","8 days",
105,385,"Peter Esige",0753588000,,,,,Sales,"Associated Motors Limited Meru","The client is interested in a single cab with regards to the running promotion. Contact and advise further.",,,"Patrick Wahome",Pending,"2018-09-12 06:50:58","7 days",
106,386,"Samuel Gitau",0790133763,,,Kitale,,"Sales Lead","Field sales - Western Region","The client called with regards to the running promotion and was interested in purchasing a single cab Dmax, however, he is not ready to make the purchase yet, he will contact us once he is ready.",,,"John Ndirangu",Pending,"2018-09-12 08:22:30","7 days",
107,387,"Erick Ojwang",0736913120,,,"Behind Panari Hotel","Metal Equipments","Sales Lead","Field sales - Mt Kenya and Coast Region","The client is interested in our pick-up but he has also shown an interest in our trucks. He promised to source for money and contact us for further information and assistance.",,,"Charles Kinuthia",Pending,"2018-09-12 08:32:54","7 days",
108,388,"Erick Ojwang",0736913120,,,"Behind Panari Hotel","Metal Equipments","Sales Lead","Field sales - Mt Kenya and Coast Region","The client is interested in our pick-up but he has also shown an interest in our trucks. He promised to source for money and contact us for further information and assistance.","Duplicate 387",,"Charles Kinuthia",Closed,"2018-09-12 08:32:58","0 days","2018-09-12 9:52:31"
109,389,"Erick Ojwang",0736913120,,,"Behind Panari Hotel","Metal Equipments","Sales Lead","Field sales - Mt Kenya and Coast Region","The client is interested in our pick-up but he has also shown an interest in our trucks. He promised to source for money and contact us for further information and assistance.","Duplicate 387",,"Charles Kinuthia",Closed,"2018-09-12 08:33:01","0 days","2018-09-12 9:52:47"
110,390,"Erick Ojwang",0736913120,,,"Behind Panari Hotel","Metal Equipments","Sales Lead","Field sales - Mt Kenya and Coast Region","The client is interested in our pick-up but he has also shown an interest in our trucks. He promised to source for money and contact us for further information and assistance.","Duplicate 387",,"Charles Kinuthia",Closed,"2018-09-12 08:33:05","0 days","2018-09-12 9:53:05"
111,391,"Erick Ojwang",0736913120,,,"Behind Panari Hotel","Metal Equipments","Sales Lead","Field sales - Mt Kenya and Coast Region","The client is interested in our pick-up but he has also shown an interest in our trucks. He promised to source for money and contact us for further information and assistance.","Duplicate 387",,"Charles Kinuthia",Closed,"2018-09-12 08:33:09","0 days","2018-09-12 9:53:19"
112,392,"Benjamin Rugut",0729620911,,,,,"Sales Lead","Field sales - Mt Kenya and Coast Region","The client is interested in a pick with regards to the promotion. but has not made up his mind.",,,"Charles Kinuthia",Pending,"2018-09-12 09:08:58","7 days",
113,431,"Benjamin Rugut",0729620911,,,,,Sales,"Associated Motors Limited Eldoret","The client is interested in purchasing a single cab Dmax, kindly get in touch with him.",,,"Erick Kirui",Pending,"2018-09-13 09:54:44","6 days",
114,393,"Owino George",0725382005/0750458360,,,Siaya,,Sales,"ACMG - Africa Commercial Motors Group Ltd Kisumu","The customer is interested in purchasing a single cab pick up, kindly get in touch with him.",,,"Mohamed Adballah",Pending,"2018-09-12 09:17:46","7 days",
115,394,"Julius Onyango","0787901005 and 0725914680",,,,,Sales,"ACMG - Africa Commercial Motors Group Ltd Kisumu","The client is interested in our pick-ups. please contact him soon enough with more details and information.",,,"Mohamed Adballah",Pending,"2018-09-12 09:25:41","7 days",
116,395,"Joshua Kogo.",0719725715,,,,,"Sales Lead","Field sales - Mt Kenya and Coast Region","Called client and he asked if there is a possibility of depositing a thousand shillings every month until the said amount is enough.",,,"Charles Kinuthia",Pending,"2018-09-12 09:37:25","7 days",
117,397,"Angelica Mwenda",0718311734,,,Meru,,Sales,"Associated Motors Limited Meru","The customer called to inquire about the running promotion for service discount, she would also like to purchase a Dmax under the 60 day repayment holiday, kindly get in touch with her.",,,"Patrick Wahome",Pending,"2018-09-12 10:08:47","7 days",
118,396,"Felix Mundirwa",0711837854,,,,,Sales,"Associated Motors Limited Meru","The client is interested in our pickups but has also shown interest in our trucks. Contact and advice further.",,,"Patrick Wahome",Pending,"2018-09-12 10:00:55","7 days",
119,410,"Albert Odhiambo",0754172321,,,,,Sales,"ACMG - Africa Commercial Motors Group Ltd Kisumu","The customer is interested in the running promotion 60 days repayment period and would like to purchase a double cab 
.Kindly assist 
",,,"Mohamed Adballah",Pending,"2018-09-12 13:28:30","7 days",
120,458,"John Kitonga",0792765919,,,,,Sales,"Associated Motors Limited Meru","The customer called, the call dropped and I had to call him back but the network from his side is bad but he is interested in the running promotion 60 days repayment period and would like to purchase a Single cab
.Kindly assist 
",,,"Patrick Wahome",Pending,"2018-09-13 18:25:42","6 days",
121,398,"Geofrey Njenga",0721675797,,,Westlands,,Service,"Isuzu East Africa Nairobi","The customer would like to book for service for an NPR truck in an hours time, the vehicle registration number is KCQ067L.",,,"Jascinta Magero",Pending,"2018-09-12 10:37:03","7 days",
122,401,"Samuel Onduso",0729031794,,,Nairobi,,Sales,"Isuzu East Africa Nairobi","The customer would like to purchase a Dmax single cab under the running promotion, kindly get in touch with him.",,,"Priscilla G. Mathiu",Pending,"2018-09-12 11:10:13","7 days",
123,399,"Mourice Bundi",0713266449,,,Meru,,Sales,"Associated Motors Limited Meru","The customer is interested in purchasing a single cab dmax. kindly get in touch with him.",,,"Patrick Wahome",Pending,"2018-09-12 10:59:31","7 days",
124,400,"Nicodemus Mwango",0721434697,,,,,Sales,"Thika Motor Dealers Mlolongo","Interested in a pickup with regards to the promotion. Contact with further details and information plus assistance.",,,"Gladys Mugo",Pending,"2018-09-12 11:01:45","7 days",
125,402,"Biwott Shadrack",0772676590,,,"Nandi Hills",,Sales,"Associated Motors Limited Eldoret","The client is interested in purchasing a single cabin pick up, kindly get in touch with him.",,,"Erick Kirui",Pending,"2018-09-12 11:17:35","7 days",
126,403,"Isaac Mutito",0789316770,,,Gilgil,,Sales,"ACMG - Africa Commercial Motors Group Ltd Nakuru","The customer would like to purchase a single cab pick up. kindly get in touch with him.",,,"Lucy Njoki",Pending,"2018-09-12 11:30:29","7 days",
127,405,"Shiro Waweru",0702646947/0733840580,,,Nairobi,,Sales,"Isuzu East Africa Nairobi","The client is interested in purchasing a double cab pick up, kindly get in touch with her.",,,"Priscilla G. Mathiu",Pending,"2018-09-12 12:13:57","7 days",
128,407,"Paul Maina",0713274299,,,Nairobi,,Sales,"Isuzu East Africa Nairobi","I bought the vehicle from you but it did not have the face of the radio and two-floor mats. Kindly assist ",,,"Priscilla G. Mathiu",Pending,"2018-09-12 12:17:10","7 days",
129,404,"Peter Muchiri",0726225916,,,,,Sales,"Associated Motors Limited Meru","The client is interested in pick-up. Please contact and give further assistance.",,,"Patrick Wahome",Pending,"2018-09-12 12:11:41","7 days",
130,406,"Benson Ruto",0710578088,,,,,Sales,"Associated Motors Limited Eldoret","Benson wants to purchase a Dmax SC uner the 60 day repayment holiday promotion.Kindly contact him","Coming to the office with statements on Monday
Sales person assigned Hilary Rotich
",,"Erick Kirui",Closed,"2018-09-12 12:14:17","6 days","2018-09-19 8:04:30"
131,408,"Edwin Korir",0725697579,,,,,Sales,"Associated Motors Limited Eldoret","Edwin wants to purchase a Dmax SC 4*4 under the 60 day repayment holiday promotion.","Does not have bank statements
Sales person assigned Hilary Rotich
",,"Erick Kirui",Closed,"2018-09-12 12:47:03","6 days","2018-09-19 8:03:56"
132,409,"John Gono",0715584629,,,,,Sales,"Associated Motors Limited Mombasa","John wants to purchase a Dmax SC 4*2 under the 60 day repayment holiday promotion.",,,"Francis Bob Makau",Pending,"2018-09-12 13:23:11","7 days",
133,411,"David Khalasia",0721155595,,,,,Sales,"Associated Motors Limited Eldoret","The client is interested in our vehicles though he has not decided which one. this is with regards to the promotion please contact and advice further.","To visit the office for more explanation
Sales person assigned Hilary Rotich
",,"Erick Kirui",Closed,"2018-09-12 14:25:21","6 days","2018-09-19 8:03:19"
134,412,"Kelvin Achevi",0708412093,,,Limuru,,Sales,"Thika Motor Dealers Ruaka","The customer is interested in the running promotion 60 days repayment period and would like to purchase a single cab pick up
.Kindly assist 
",,,"Michael Muriithi",Pending,"2018-09-12 14:51:36","7 days",
135,413,"James Peter",0727341331,,,,,Sales,"Associated Motors Limited Eldoret","James wants to purchase a Dmax SC 4""*2 under the 60 day repayment holiday promotion.",,,"Erick Kirui",Pending,"2018-09-12 14:56:41","7 days",
136,414,"Hillary Kipkemei",0721833402,,,,,Sales,"Associated Motors Limited Eldoret","Hillary wants to purchase a Dmax SC 4*2 under the 60 day repayment holiday promotion.","Coming to the office on Friday
Sales person assigned Hilary Rotich
",,"Erick Kirui",Closed,"2018-09-12 15:42:29","6 days","2018-09-19 8:02:42"
137,415,"Christopher Kiprotich",0710191219,,,Baringo,,Sales,"Associated Motors Limited Eldoret","The customer is interested in the running promotion 60 days repayment period and would like to purchase TFR 86 SC (HR + AC)
.Kindly assist 
",,,"Erick Kirui",Pending,"2018-09-12 15:51:36","7 days",
138,416,"Shadrack ",0735736230,,,Saboti,,Sales,"CFG KITALE","Shadrack wants to purchase FRR truck under the 60 day repayment holiday promotion.",,,"RICHARD KAMAU",Pending,"2018-09-12 15:55:15","7 days",
139,417,"Steven Nderitu",0703965605,,,Nyahururu,,"Sales Lead","Field sales - Mt Kenya and Coast Region","The customer is interested in the running promotion 60 days repayment period and would like to purchase a single cab pick up
.Kindly assist 
",,,"Charles Kinuthia",Pending,"2018-09-12 16:10:09","7 days",
140,418,"David Kiskenei",0771393731,,,Hurlighum,,Sales,"CFG NAIROBI","The customer is interested in the running promotion 60 days repayment period and would like to purchase TFR 86 SC (HR + AC)
.Kindly assist 
",,,"GILBERT MUTULU",Pending,"2018-09-12 18:11:29","7 days",
141,419,"Sylvester Onyango",0787537516,,,,,Sales,"ACMG - Africa Commercial Motors Group Ltd Kisii","Sylvester wants to purchase a Dmax Sc 4*4 under the 60 day repayment holiday promotion.",,,"Erick Makori",Pending,"2018-09-12 18:22:08","7 days",
142,420,"Wilfred Mungare",0721333253,,,Kiambu,,Sales,"Thika Motor Dealers Ruaka","The customer is interested in the running promotion 60 days repayment period and would like to purchase a vehicle but he has not decided if its a pickup or a truck.
.Kindly assist 
",,,"Michael Muriithi",Pending,"2018-09-12 18:42:02","7 days",
143,421,"Aloice Achieng",0725376522,,,,,Sales,"ACMG - Africa Commercial Motors Group Ltd Kisii","Aloice wants to purchase NPR cab under the 60 day repayment holiday promotion.",,,"Erick Makori",Pending,"2018-09-12 18:46:23","7 days",
144,422,"John Theuri",0722809420,,,Nairobi,,Sales,"Isuzu East Africa Nairobi","The customer is interested in the running promotion 60 days repayment period and would like to purchase TFR 86 SC (HR + AC)
.Kindly assist 
",,,"Priscilla G. Mathiu",Pending,"2018-09-12 19:03:20","7 days",
145,423,"Dennis Ngw'angw'a",0716397732,,,,,Sales,"ACMG - Africa Commercial Motors Group Ltd Nakuru","Dennis wants to purchase a Dmax DC under the 60 day repayment holiday promotion.",,,"Lucy Njoki",Pending,"2018-09-12 19:04:30","7 days",
146,433,"Reuben Langat",0770621596,,,Bomet,,Sales,"Isuzu East Africa Nairobi","The above client called and wants to change dealers. he says he is partially impaired physically and he would like the headquarters so that we can be able to modify the vehicle to soot him. contact him as soon as possible with details.",,,"Priscilla G. Mathiu",Pending,"2018-09-13 10:26:04","6 days",
147,424,"Reuben Langat",0770621596,,,Bomet,,Sales,"ACMG - Africa Commercial Motors Group Ltd  Kericho","The customer is interested in the running promotion 60 days repayment period and would like to purchase a vehicle but not sure what.
.Kindly assist 
","client cannot be reached.",,"Sylvia Omolloh",Closed,"2018-09-12 19:37:54","6 days","2018-09-19 2:30:50"
148,425,"Jacob Mureithi",0723702235,,,Meru,,Sales,"Associated Motors Limited Meru","The client would like to purchase a single cab Dmax, kindly get in touch with him.",,,"Patrick Wahome",Pending,"2018-09-13 07:30:54","6 days",
149,426,"Daniel Agweng",0735614642/0726729905,,,Awendo,,Sales,"ACMG - Africa Commercial Motors Group Ltd Kisii","The client is interested in purchasing a single cab Dmax, kindly get in touch with him.",,,"Erick Makori",Pending,"2018-09-13 07:53:26","6 days",
150,427,"Erick Kioko",0782905574,,,,,Sales,"Thika Motor Dealers Thika","The client is interested in our pickups. please contact with further information and assistance.","His phone number is off air. ",,"Betty Kariuki",Closed,"2018-09-13 07:54:11","6 days","2018-09-20 7:12:44"
151,428,"Ali Chilaga",0712281434,,,Kawangware,,Sales,"Isuzu East Africa Nairobi","The client is interested in a truck with regards to the promotion. Please contact him as soon as possible with more details and assistance.",,,"Priscilla G. Mathiu",Pending,"2018-09-13 09:06:14","6 days",
152,429,"Charles Kamiri",0727656211,,,"Ol kalou",,Sales,"ACMG - Africa Commercial Motors Group Ltd Nakuru","The customer would like to purchase a truck under the running promotion.",,,"Lucy Njoki",Pending,"2018-09-13 09:11:26","6 days",
153,430,"Samuel Mburu",0727987102,,,,,Sales,"Thika Motor Dealers Thika","The client is interested in our single cab pickup under the running promotion. Kindly assist.","He will be visiting our showroom tomorrow to view the Dmax and we explore the financing options",,"Betty Kariuki",Closed,"2018-09-13 09:40:08","6 days","2018-09-20 7:06:52"
154,432,"Peter Ndambuki","0722934120 ",peterndambuki20@gmail.com,,Eastleigh,,Sales,"Ryce East Africa Ltd Nairobi","The client is interested in a single cab please contact and advice further with more information. ",,,"IDA AKINYI",Pending,"2018-09-13 10:18:06","6 days",
155,435,"Rhino Special",0724096381,,,Nairobi,,Service,"Isuzu East Africa Nairobi","The customer called in requesting to speak to Komen because her vehicle was not serviced properly and would like the work to be redone. This is urgent because her vehicle is supposed to go for a safari today, kindly assist.

Customer name; Judy.
Company; Rhino special products.
Vehicle registration number; KBG905R
Service Date; 5th September.",,,"Jascinta Magero",Pending,"2018-09-13 10:42:33","6 days",
156,434,"Joseph Njuguna",0720235142,,,Kasarani,,Sales,"Isuzu East Africa Nairobi","The client is interested in a pickup with regards to the promotion. Contact and assist further with more information.",,,"Priscilla G. Mathiu",Pending,"2018-09-13 10:40:20","6 days",
157,436,"Gideon Gacheru",0724394696,,,"Kahawa Sukari",,Sales,"Thika Motor Dealers Thika","The customer would like to purchase a single cab Dmax under the running promotion, kindly get in touch with him.","He is not ready at the moment but will revert once he is ready.",,"Betty Kariuki",Closed,"2018-09-13 10:52:11","6 days","2018-09-20 7:05:35"
158,437,"Gabriel Ngugi",0720495841,,,Molo,,"Sales Lead","Field sales - Mt Kenya and Coast Region","The customer would like to purchase a pickup under the running promotion, he insists that he needs to get the terms clearly from the bank before he decides on whether or not he will purchase the vehicle.","Greetings

Contacted the client Lucas Miriti sent a quote. Will make a follow up. Wants a Tfr 86 next month.

Kind regards

Jane
",,"Charles Kinuthia",Closed,"2018-09-13 10:57:46","4 days","2018-09-18 3:32:22"
159,438,"Stanley Mwangi",0701669592,,,Eastleigh,,Parts,"CFG NAIROBI","The above client is interested in purchasing parts. contact now.",,,"CECILIA MUIA",Pending,"2018-09-13 11:11:26","6 days",
160,439,"Kariuki Muturi",0721634603,,,Limuru,,Sales,"Thika Motor Dealers Ruaka","The client is interested in purchasing a vehicle under the running promotion, kindly contact him.",,,"Michael Muriithi",Pending,"2018-09-13 11:32:15","6 days",
161,440,"Keziah Waithera",0721345209,,,Mwiki,,Sales,"Isuzu East Africa Nairobi","The client is interested in our vehicles with regards to the promotion. please contact now.",,,"Priscilla G. Mathiu",Pending,"2018-09-13 11:41:52","6 days",
162,441,"Kennedy Rono",0737542802,,,Chepkoilel,,Sales,"Associated Motors Limited Eldoret","Interested in our pickups with regards to the promotion. please call with further assistance.",,,"Erick Kirui",Pending,"2018-09-13 11:53:39","6 days",
163,442,"Simon Muiruri",0755625968,,,Molo,,Sales,"ACMG - Africa Commercial Motors Group Ltd Nakuru","The customer would like to purchase a truck under the running promotion. Please get in touch with him.",,,"Lucy Njoki",Pending,"2018-09-13 12:21:24","6 days",
164,443,"Josephat Njoroge",0706823042,,,Kiambu,,Sales,"Thika Motor Dealers Ruaka","The customer is interested in the running promotion 60 days repayment period and would like to purchase a vehicle but not sure which one between FRR and a single cab 
.Kindly assist 
","His current statements on average he operates with kshs. 70,000 which cannot surpport the application",,"Michael Muriithi",Closed,"2018-09-13 12:58:20","5 days","2018-09-19 2:09:20"
165,444,"Jane Muthoni",0716630722,,,,,Sales,"Associated Motors Limited Meru","Muthoni wants to purchase a Dmax SC 4*4 under the 60 day repayment holiday promotion.",,,"Patrick Wahome",Pending,"2018-09-13 13:25:08","6 days",
166,445,"Philip Mayienga",0728118800,,,Njoro,,Sales,"ACMG - Africa Commercial Motors Group Ltd Nakuru","Philip wants to purchase a Dmax SC under the 60 day repayment holiday promotion.",,,"Lucy Njoki",Pending,"2018-09-13 13:34:59","6 days",
167,446,"John Nzeki",0751735569/0720137145,,,"Nandi County",,Sales,"Associated Motors Limited Eldoret","The client would like to purchase a single cab, kindly get in touch with him. ",,,"Erick Kirui",Pending,"2018-09-13 14:03:03","6 days",
168,447,"Revijas Ondijo","0737141495 and 0703174971",,,,,Sales,"ACMG - Africa Commercial Motors Group Ltd Kisumu","The client is interested in a single cab. please contact as soon as possible with further assistance.",,,"Mohamed Adballah",Pending,"2018-09-13 14:25:18","6 days",
169,448,"Peter Muli",0736037757,,,Limuru,,"Sales Lead","Field sales - Mt Kenya and Coast Region","The client is interested in our pickups. He has requested to be given some time to sort himself out then he will contact us for more details.",,,"Charles Kinuthia",Pending,"2018-09-13 14:40:26","6 days",
170,449,"Samuel Okello",0733208000,,,Kisumu,,Sales,"ACMG - Africa Commercial Motors Group Ltd Kisumu","The customer is interested in the running promotion 60 days repayment period and would like to purchase TFR 86 SC (HR + AC)
.Kindly assist 
",,,"Mohamed Adballah",Pending,"2018-09-13 14:51:01","6 days",
171,450,"Nathan Yela",0728019984,,,"Ongata Rongai",,Sales,"Isuzu East Africa Nairobi","The client is interested in buying a dmax under the running promotion. Kindly assist.",,,"Priscilla G. Mathiu",Pending,"2018-09-13 14:58:53","6 days",
172,451,"Jared Awino",0724467460,,,Kisumu,,"Sales Lead","Field sales - Western Region","The client is interested in buying the single cab pick up and will get back to us as soon as possible.",,,"John Ndirangu",Pending,"2018-09-13 15:18:53","6 days",
173,452,"Sammy Fiele",0778400516,,,Bomet,,Sales,"ACMG - Africa Commercial Motors Group Ltd  Kericho","The client is very interested in our pickups and wants to be contacted as soon as possible.","client had already been referred by NIC bank, to send us some bank statements by next week",,"Sylvia Omolloh",Closed,"2018-09-13 15:23:05","5 days","2018-09-19 2:34:28"
174,453,"Harrison Kipkimal",0714840223,,,Eldoret,,Sales,"Associated Motors Limited Eldoret","The customer is interested in the running promotion 60 days repayment period and would like to purchase a vehicle he is not sure if its a truck or a pickup
.Kindly assist 
",,,"Erick Kirui",Pending,"2018-09-13 15:28:29","6 days",
175,454,"John Karu",0773043286,,,Ruai,,Sales,"Thika Motor Dealers Ruaka","John is interested in the 60 day promotion that is currently running and would like to get more information with regards to the trucks and pick ups for his business.","Customer to bring bank statements next week on Tuesday/Wednesday.",,"Michael Muriithi",Closed,"2018-09-13 15:47:44","5 days","2018-09-19 2:08:17"
176,455,"Stanley Kariuki",0748782630,stankariuki9@gmail.com,,Kinoo,,Sales,"Isuzu East Africa Nairobi","Customer called to request we send him the vehicle prices for the trucks and requested to be contacted so that we can give him more information concerning the 60-days repayment period.",,,"Priscilla G. Mathiu",Pending,"2018-09-13 16:13:35","6 days",
177,457,"Edith Gatia",0722447393,,,Nairobi,,Sales,"Isuzu East Africa Nairobi","The customer is interested in the running promotion 60 days repayment period and would like to purchase a single cab 
.Kindly assist 
",,,"Priscilla G. Mathiu",Pending,"2018-09-13 16:56:08","6 days",
178,456,"Ezayo Ronald",0720535109,,,Kabarnet,,Sales,"Associated Motors Limited Eldoret","Ezayo wants to purchase a Dmax SC under the 60 day repayment holiday promotion.",,,"Erick Kirui",Pending,"2018-09-13 16:56:02","6 days",
179,459,"George Juma",0772739416,,,,,Sales,"ACMG - Africa Commercial Motors Group Ltd Kisii","George wants to purchase a SC 4*2.Kindly contact him",,,"Erick Makori",Pending,"2018-09-13 19:53:41","6 days",
180,460," Alex",0700712047,,,Gilgil,"Anti Stock Theft Authority","Dealers complaints","Isuzu East Africa Nairobi","The client purchased two pickups from Isuzu East Africa yesterday but both of them do not have a toolbox and the spanners. Kindly get in touch with him. ","Customer Contacted and advised on where the toolbox is located",,"Georgina Gerwon",Closed,"2018-09-14 07:41:06","5 days","2018-09-19 7:54:09"
181,462," Alex",0700712047,,,Gilgil,"Anti Stock Theft Authority","Dealers complaints","Isuzu East Africa - Sales","The client purchased two pickups from Isuzu East Africa yesterday but both of them do not have a toolbox and the spanners. Kindly get in touch with him.","Customer Contacted and advised on where the toolbox is located",,"Priscilla G. Mathiu",Closed,"2018-09-14 08:16:59","4 days","2018-09-19 7:53:54"
182,461,"Kimeu Paul",0718334721,,,Yatta,,Sales,"Thika Motor Dealers Machakos","The client is interested in purchasing a truck under the running promotion, kindly get in touch with him.","No response",,"Winfred Mbuthia",Closed,"2018-09-14 08:14:17","4 days","2018-09-19 3:41:27"
183,466,"David Okello",0734868526,,,Kisii,,Sales,"ACMG - Africa Commercial Motors Group Ltd Kisii","The client would like to purchase a truck under the running promotion.",,,"Erick Makori",Pending,"2018-09-14 10:06:03","5 days",
184,463,"Dominic Obwek",0721553245,,,Kisii,,Sales,"ACMG - Africa Commercial Motors Group Ltd Kisii","The client would like to purchase a truck under the promotion, kindly get in touch with him,",,,"Erick Makori",Pending,"2018-09-14 09:25:40","5 days",
185,464,"Joel Omer",0718948077,,,Tasia,,Sales,"Isuzu East Africa Nairobi","The client would like to purchase an FRR truck under the running promotion, kindly get in touch with him.",,,"Priscilla G. Mathiu",Pending,"2018-09-14 09:29:54","5 days",
186,465,"Alfred Ngaine",0705993415,,,,,"Sales Lead","Field sales - Mt Kenya and Coast Region","The client is interested in a single cab with regards to the promotion but has not made up his mind yet.",,,"Charles Kinuthia",Pending,"2018-09-14 09:48:17","5 days",
187,467,"Raymond Kiptoo",0723521097,,,,,Sales,"Associated Motors Limited Eldoret","The client is interested in our pickups with regards to the promotion. Please contact soon enough with further details and assistance.",,,"Erick Kirui",Pending,"2018-09-14 10:58:52","5 days",
188,468,"Julius Njuguna",0718911216,,,"Dar es salaam road",,Sales,"CFG NAIROBI","The above client is interested in our pickup with regards to the promotion. contact with further assistance.","Talked to the client but said he is preparing himself financially he will communicate when ready. ",,"GILBERT MUTULU",Closed,"2018-09-14 11:16:02","0 days","2018-09-14 11:45:17"
189,469,"Jeremiah Mburu",0726936351,,,Kiambu,,Sales,"Thika Motor Dealers Ruaka","The client is interested in purchasing a single cab Dmax kindly get in touch with him.","Customer to visit the office on 20/09/2018",,"Michael Muriithi",Closed,"2018-09-14 11:27:10","4 days","2018-09-19 2:11:40"
190,470,"Carlos Omuga",078647562,,,"Homa Bay",,Sales,"ACMG - Africa Commercial Motors Group Ltd Kisii","The customer would like to purchase a single cab Dmax under the running Promotion, kindly get in touch with him.",,,"Erick Makori",Pending,"2018-09-14 11:31:44","5 days",
191,471,"Owado Timothy",0722492672/20255537,,,,,Sales,"Thika Motor Dealers Machakos","The client would like to purchase a truck under the running promotion, kindly get in touch with him.","Out of reach",,"Winfred Mbuthia",Closed,"2018-09-14 11:50:09","4 days","2018-09-19 3:42:20"
192,472,"Isaac Okello",0737535871,,,Alego,,Sales,"ACMG - Africa Commercial Motors Group Ltd Kisumu","The client is interested in a single cab with regards to the promotion. please contact and assist further.",,,"Mohamed Adballah",Pending,"2018-09-14 12:08:16","5 days",
193,474,"Geofrey Makinya",0722679658,,,"Machakos County",,Sales,"Thika Motor Dealers Mlolongo","The customer would like to purchase a Dmax under the running promotion.",,,"Gladys Mugo",Pending,"2018-09-14 12:17:31","5 days",
194,473,"Geofrey Makinya",0722679658,,,"Machakos County",,Sales,"Thika Motor Dealers Mlolongo","The customer would like to purchase a Dmax under the running promotion.","Booked an appointment with the customer tomorrow at Mlolongo",,"Gladys Mugo",Closed,"2018-09-14 12:17:27","5 days","2018-09-20 7:15:43"
195,475,"Francis Mwangi",0771217487,,,"Nyeri county",,Sales,"Thika Motor Dealers Karatina","The customer is interested in the running promotion 60 days repayment period and would like to purchase a truck
.Kindly assist 
",,,"Dickson Mwangi",Pending,"2018-09-14 12:40:27","5 days",
196,476,"Patrick Laaru",0720961471,,,Meru,,Sales,"Associated Motors Limited Meru","Patrick wants to purchase a Dmax SC 4*4 under the 60 day repayment holiday promotion.",,,"Patrick Wahome",Pending,"2018-09-14 12:49:10","5 days",
197,477,"Joseph Ndungu",0785566194,,,kajiado,,Sales,"Isuzu East Africa Nairobi","The customer is interested in the running promotion 60 days repayment period and would like to purchase TFR 86 SC (HR + AC+ AIR BAG)

.Kindly assist 
",,,"Priscilla G. Mathiu",Pending,"2018-09-14 13:03:36","5 days",
198,478,"Noah Kemboi",0711144682,,,Nandi,,Sales,"Associated Motors Limited Eldoret","Noah wants to purchase a Dmax SC 4*2 under the 60 day repayment holiday.",,,"Erick Kirui",Pending,"2018-09-14 13:23:25","5 days",
199,479,"Wesley Lelesepei",0716147275,,,Baringo,,Sales,"Associated Motors Limited Eldoret","The customer is interested in the running promotion 60 days repayment period and would like to purchase a vehicle but he is not sure yet which one. Kindly assist 
",,,"Erick Kirui",Pending,"2018-09-14 13:37:48","5 days",
200,480,"Joshua Chiwai",0722631854,,,,,Sales,"KCI - Kenya Coach Industries Nairobi","The client is interested in a pickup. Please contact as soon as now with further details and information.",,,"TIMOTHY OUKO",Pending,"2018-09-14 14:16:32","5 days",
201,481,"Moses Masese",0727082815,,,"Uasin Gishu County.",,Sales,"Associated Motors Limited Eldoret","The customer is interested in the running promotion 60 days repayment period and would like to purchase TFS 86 SC (HR + AC+ AIRBAG). Kindly assist 
",,,"Erick Kirui",Pending,"2018-09-14 14:54:51","5 days",
202,482,"Francis Thuo",0722430838,,,Nakuru,,Service,"ACMG - Africa Commercial Motors Group Ltd Nakuru","The customer is interested in the running promotion 60 days repayment period and would like to purchase TFR 86 SC (HR + AC)
.Kindly assist 
",,,"Â Rose Sakhasia",Pending,"2018-09-14 15:36:09","5 days",
203,483,"Erick Ochieng'",0728481452,,,Nairobi,,Sales,"Isuzu East Africa Nairobi","Erick wants to purchase a Dmax SC under the 60 day repayment holiday promotion.",,,"Priscilla G. Mathiu",Pending,"2018-09-14 15:47:42","5 days",
204,484,"Henry Watoro",0720807956,,,"Murang'a ",,Sales,"Thika Motor Dealers Thika","The customer is interested in the running promotion 60 days repayment period and would like to purchase TFR 86 SC (HR + AC)
.Kindly assist 
","He will visit our showroom on Monday 24th September, 2018.",,"Betty Kariuki",Closed,"2018-09-14 15:56:08","5 days","2018-09-20 7:07:47"
205,485,"Charo Jefwa",0716681444/0732896100,,,Mombasa,,Sales,"Associated Motors Limited Mombasa","Charo wants to purchase a Dmax DC.Kindly contact him.",,,"Francis Bob Makau",Pending,"2018-09-14 16:20:32","5 days",
206,486,"Fester Munyalo",0763888880,,,Kajiado,,"Sales Lead","Field sales - Mt Kenya and Coast Region","The client is interested in our vehicles, he has said he will call us back for more details.",,,"Charles Kinuthia",Pending,"2018-09-14 16:41:29","5 days",
207,487,"William Onono",0700810152,,"water company",Nairobi,"Benmont SPrings",Sales,"KCI - Kenya Coach Industries Nairobi","William wants to purchase a Dmax under the 60 day repayment holiday promotion.",,,"TIMOTHY OUKO",Pending,"2018-09-14 17:54:30","5 days",
208,488,"Norman Ngetu",0739185506/0795932522,,,Meru,,Sales,"Associated Motors Limited Meru","The customer is interested in the running promotion 60 days repayment period and would like to purchase TFR 86 SC (HR + AC)
.Kindly assist 
",,,"Patrick Wahome",Pending,"2018-09-14 19:41:59","5 days",
209,489,"Patrick Mungai",0722894679,,,Nairobi,,Sales,"Thika Motor Dealers Thika","Patrick is interested in purchasing a Dmax under the 60 day repayment holiday promotion.","We scheduled for an appointment on Friday and my colleague Phides Muthoni will meet him.",,"Betty Kariuki",Closed,"2018-09-14 19:48:45","5 days","2018-09-20 7:08:42"
210,490,"Wanyonyi Wycliffe",0711414923,,,Nakuru,,Sales,"ACMG - Africa Commercial Motors Group Ltd Nakuru","Customer wants to purchase a Dmax SC under the 60 day repayment holiday promotion.",,,"Lucy Njoki",Pending,"2018-09-15 08:31:40","4 days",
211,492,"David Rotich","0731670471 and 0710257534",,,Bomet,,"Sales Lead","Field sales - Mt Kenya and Coast Region","The client is interested in a pickup with regards to the promotion but he has not decided yet. please follow up.",,,"Charles Kinuthia",Pending,"2018-09-15 10:36:32","4 days",
212,493,"Reuben Rotich",0796889629,,,Nakuru,,Sales,"ACMG - Africa Commercial Motors Group Ltd Nakuru","The client is interested in an SC in regards to the 60-day holiday repayment plan and would like to be contacted as soon as possible with more details.",,,"Lucy Njoki",Pending,"2018-09-15 10:46:27","4 days",
213,495," Gashuru",0786520989,,,Kilifi,,"Sales Lead","Field sales - Mt Kenya and Coast Region","The client is interested in our single cab but has not made up his mind yet.",,,"Charles Kinuthia",Pending,"2018-09-15 11:24:56","4 days",
214,494,"Samuel Mureithi",0789162756,,,Kajiado,,Sales,"Thika Motor Dealers Machakos","The client is interested in an NPR truck in regards to the 60-day holiday repayment plan. Contact him with more details on the vehicle.","Interested in NPR. Requested we call him end October when he will be ready ",,"Winfred Mbuthia",Closed,"2018-09-15 11:17:35","3 days","2018-09-19 3:42:57"
215,496,"Methuselah Kiprotich",0721228610,,,Nairobi,,Sales,"Ryce East Africa Ltd Nairobi","The client is interested in a 4*2 single cab in regards to the 60-day holiday repayment plan. Kindly assist him with more information.","Customer contacted by IDA",,"IDA AKINYI",Closed,"2018-09-15 11:48:58","2 days","2018-09-18 3:29:03"
216,498,"John Okoth",0735102553,,,Eldoret,,Sales,"Associated Motors Limited Eldoret","The client is interested in a single cab with regards to the promotion.",,,"Erick Kirui",Pending,"2018-09-15 12:18:12","4 days",
217,500,"Simon Marikin",0776288606,,,Kericho,,Sales,"ACMG - Africa Commercial Motors Group Ltd  Kericho","Interested in a pickup with regards to the promotion. contact as soon as possible.","was just enquiring and will come before weekend",,"Sylvia Omolloh",Closed,"2018-09-15 12:27:28","3 days","2018-09-19 2:37:04"
218,499,"Wellu Gitonga",0727077257,,,Nyeri,,Sales,"Thika Motor Dealers Karatina","Wellu wants to purchase a Dmax SC under the 60 day repayment promotion.",,,"Dickson Mwangi",Pending,"2018-09-15 12:26:41","4 days",
219,502,"Steven Lebore",0752712178,,,Narok,,Sales,"ACMG - Africa Commercial Motors Group Ltd Nakuru","Steven wants to know more about Isuzu buses.Please contact him.",,,"Lucy Njoki",Pending,"2018-09-15 12:43:05","4 days",
220,501,"David Wachira",0786566478,,,Kirinyaga,,Sales,"Isuzu East Africa Nairobi","David wants to purchase a Dmax SC 4*4 under the 60 day repayment holiday promotio.",,,"Priscilla G. Mathiu",Pending,"2018-09-15 12:36:17","4 days",
221,503,"Julius Muringi",0718568185,,,Meru,,Sales,"Associated Motors Limited Meru","Interested in a single cab please contact as soon as possible and advice further.",,,"Patrick Wahome",Pending,"2018-09-15 13:27:52","4 days",
222,504,"Ali Stano",0721354050,,,Kajiado,,Sales,"Isuzu East Africa Nairobi","Interested in a double cab ( automatic). contact as soon as possible.",,,"Priscilla G. Mathiu",Pending,"2018-09-15 13:30:29","4 days",
223,505,"George Onyango",0739831579/0722799922,,,Nairobi,,Sales,"Ryce East Africa Ltd Nairobi","George wants to purchase a Dmax SC 4*2 under the 60 day repayment holiday promotion.","Contacted by IDA",,"IDA AKINYI",Closed,"2018-09-15 14:28:30","2 days","2018-09-18 3:29:51"
224,506,"Agnes Seline",0738700170,,,Kericho,,Sales,"ACMG - Africa Commercial Motors Group Ltd  Kericho","Agnes would like to purchase an FRR under the 60 day repayment holiday promotion.","will visit showroom, see our products and discuss further",,"Sylvia Omolloh",Closed,"2018-09-15 14:44:37","3 days","2018-09-19 2:19:41"
225,507,"Nelson Njue",0710369502,,,Embu,,Sales,"Thika Motor Dealers Karatina","Nelson wants to purchase a Dmax SC 4*4 under the 60 day repayment holiday promotion.",,,"Dickson Mwangi",Pending,"2018-09-15 15:14:05","4 days",
226,508,"Jeremy Komen",0722686897,,,Meru,,Sales,"Associated Motors Limited Meru","The client interested in a single cab. contact as soon as possible and advise further with regards to the promotion.",,,"Patrick Wahome",Pending,"2018-09-15 15:35:20","4 days",
227,509,"Josiah Odingo",0731642178,,,Migori,,Sales,"ACMG - Africa Commercial Motors Group Ltd Kisii","Interested in a single cab but he is not sure whether he wants it under the promotion or just within the financing option of 10% and the rest payable within a month. Contact and advise further.",,,"Erick Makori",Pending,"2018-09-15 16:25:46","4 days",
228,510,"Alice Mbere",0727566366,,,Kiambu,,Sales,"Thika Motor Dealers Ruaka","Interested in both an NKR and an FRR truck but she has not decided which one specifically she wants. Under the promotion, contact and advice further.","Received and already called the customer.

On Mon, Sep 17, 2018, 09:24 Isuzu EA Contact Center <contactcenter@isuzu.co.ke> wrote:
Hello Michael,

Kindly confirm receipt of this email.

Thank.
",,"Michael Muriithi",Closed,"2018-09-15 16:39:25","2 days","2018-09-18 3:31:21"
229,511,"Wilson Ngatia",0719448996,,,Isiolo,,Sales,"Associated Motors Limited Meru","The client would like to purchase a single cab pick up, kindly get in touch with him.",,,"Patrick Wahome",Pending,"2018-09-16 09:37:47","3 days",
230,512,"Kormelias Kemboi",0770350639,,,"Uasin Gishu County.",,Sales,"Associated Motors Limited Eldoret","The customer is interested in the running promotion 60 days repayment period and would like to purchase TFR 86 SC (HR + AC)
.Kindly assist 
",,,"Erick Kirui",Pending,"2018-09-16 09:48:37","3 days",
231,513,"Bernard Odoi",0700228509,,,Nairobi,,Sales,"Isuzu East Africa Nairobi","The customer is interested in the running promotion 60 days repayment period and would like to purchase a vehicle not sure which one. Kindly assist 
",,,"Priscilla G. Mathiu",Pending,"2018-09-16 11:15:09","3 days",
232,514,"William Bii",0722621382,,,Eldoret,,Sales,"Associated Motors Limited Eldoret","The customer needs to purchase a dmax under the running promotion, kindly contact him.
",,,"Erick Kirui",Pending,"2018-09-16 17:07:16","3 days",
233,515,"Samuel Lang'at",0724676777,,,Nairobi,,Sales,"Isuzu East Africa Nairobi","The client would like to purchase a vehicle under the running promotion, kindly get in touch with him.",,,"Priscilla G. Mathiu",Pending,"2018-09-16 17:09:54","3 days",
234,516,"Peter Ochieng",0751052863,,,Siaya,,Sales,"ACMG - Africa Commercial Motors Group Ltd Kisumu","The client is interested the TFR 86 SC (HR + AC) this is with regard to the 60-day repayment holiday plan. Kindly assist.
",,,"Mohamed Adballah",Pending,"2018-09-17 08:20:20","2 days",
235,517,"Julius Vitura",0729007438,,,"Meru ",,Sales,"Associated Motors Limited Meru","The customer is interested in the running promotion 60 days repayment period and would like to purchase TFR 86 SC (HR + AC)
.Kindly assist 
",,,"Patrick Wahome",Pending,"2018-09-17 08:37:12","2 days",
236,518,"George Otieno",0787205933,,,Kisumu,,Sales,"ACMG - Africa Commercial Motors Group Ltd Kisumu","The client is interested in the TFR 86 SC (HR + AC) this is with regards to the 60 days repayment holiday. Kindly assist.
",,,"Mohamed Adballah",Pending,"2018-09-17 08:51:56","2 days",
237,519,"Ibrahim Gitau",0715487509,,,Nakuru,,Sales,"ACMG - Africa Commercial Motors Group Ltd Nakuru","The customer is interested in the running promotion 60 days repayment period and would like to purchase TFR 86 SC (HR + AC)
.Kindly assist 
",,,"Lucy Njoki",Pending,"2018-09-17 09:01:52","2 days",
238,520,"Stana Pando",0724003388,,,Kwale,,Sales,"Ryce East Africa Ltd Mombasa","The client is interested in an NPR truck under the 60 days repayment holiday. Kindly assist with more information.
","Thank you,
Customer is coming to see me on Wednesday.
Will keep you posted.
Ayoob
",,"AYUB MUSA",Closed,"2018-09-17 09:44:41","0 days","2018-09-18 3:26:51"
239,521,"Josephat Mulungu",0738623966,,,Trans-Nzoia,,Sales,"CFG KITALE","The customer is interested in the running promotion 60 days repayment period and would like to purchase TFR 86 SC (HR + AC)
.Kindly assist 
",,,"RICHARD KAMAU",Pending,"2018-09-17 09:56:10","2 days",
240,522,"Stephen Tonui",0726576567,,,Nandi,,Sales,"Associated Motors Limited Eldoret","The client is interested in the TFR 86 SC (HR + AC) this is under the 60 days repayment holiday plan promotion. Contact as soon as possible.",,,"Erick Kirui",Pending,"2018-09-17 10:08:53","2 days",
241,523,"Nicholas Otieno",0756279361/0711425416,,,Siaya,,Sales,"ACMG - Africa Commercial Motors Group Ltd Kisumu","The customer is interested in the running promotion 60 days repayment period and would like to purchase TFR 86 SC (HR + AC)
.Kindly assist 
",,,"Mohamed Adballah",Pending,"2018-09-17 10:29:49","2 days",
242,524,"Daniel Kiptoo",0725898471,,,"Uasin Gishu",,Sales,"Associated Motors Limited Eldoret","The client is interested in an SC and would be coming into your offices any time from now to get more details on the 60-day repayment holiday plan. Kindly assist.",,,"Erick Kirui",Pending,"2018-09-17 10:52:45","2 days",
243,525,"Joseph Karuri",0720771510,,,Nyandarua,,Sales,"ACMG - Africa Commercial Motors Group Ltd Nakuru","Joseph wants to purchase a Dmax SC under the 60 day repayment holiday promotion.",,,"Lucy Njoki",Pending,"2018-09-18 08:40:35","1 days",
244,526,"John Murui",0796193547,,,Kitui,,Sales,"Thika Motor Dealers Machakos","Interested in an Sc this is under the 60 days repayment holiday plan.",,,"Winfred Mbuthia",Pending,"2018-09-18 08:56:44","1 days",
245,527,"Samuel Ogada",0737619212,,,Homabay,,Sales,"ACMG - Africa Commercial Motors Group Ltd Kisii","Samuel wants to purchase a Dmax SC 4*4 under the 60 day repayment holiday.",,,"Erick Makori",Pending,"2018-09-18 09:00:51","1 days",
246,528,"Kevin Koech",0725021222,,,Kericho,,Sales,"ACMG - Africa Commercial Motors Group Ltd  Kericho","The client is interested in an SC this is in regards to the 60 days repayment holiday and would like to be contacted as soon as possible.",,,"Sylvia Omolloh",Pending,"2018-09-18 09:15:07","1 days",
247,529,"Anyu Mutondoi",0710262610,,,Meru,,Sales,"Associated Motors Limited Meru","Customer wants to purchase a Dmax 4*4 under the 60 day repayment holiday promotion.",,,"Patrick Wahome",Pending,"2018-09-18 09:41:56","1 days",
248,530,"Samuel Mundai",0728667811,,,Nairobi,,Sales,"Isuzu East Africa Nairobi","The customer is interested in TFS 86 SC (HR + AC+ AIR BAG) this is with regards to the running promotion. Kindly assist.
",,,"Priscilla G. Mathiu",Pending,"2018-09-18 11:43:06","1 days",
249,531,"Chrispus Musembi",0717558561,,,Kiambu,,Sales,"Thika Motor Dealers Thika","Chrispus wants to purchase a Dmax DC automatic under the 60 day repayment holiday promotion.",,,"Betty Kariuki",Pending,"2018-09-18 11:52:18","1 days",
250,532,"Ezekiah Arap",0782873719,,,Nandi,,Sales,"Associated Motors Limited Eldoret","The client is interested in a TFS 86 SC (HR + AC+ AIR BAG) this is with regards to the running promotion. Kindly assist.
",,,"Erick Kirui",Pending,"2018-09-18 11:58:34","1 days",
251,533,"Fred Mugeni",0733314422,,,Nairobi,,Sales,"Isuzu East Africa Nairobi","Fred wants to purchase a Dmax SC 4*2 under the 60 day repayment holiday promotion.",,,"Priscilla G. Mathiu",Pending,"2018-09-18 12:02:41","1 days",
252,534,"Stephen Muruiki",0721252600,,,Meru,,Sales,"Associated Motors Limited Meru","The client is interested in the TFS 86 SC (HR + AC+ AIR BAG) this is in regards to the running promotion. Kindly assist.
",,,"Patrick Wahome",Pending,"2018-09-18 12:11:08","1 days",
253,535,"Dismas Kandie",0771570277,,,"Elgeyo Marakwet",,Sales,"Associated Motors Limited Eldoret","Dismas wants to purchase a Dmax SC 4*4 under the 60 day repayment holiday promotion.",,,"Erick Kirui",Pending,"2018-09-18 12:31:14","1 days",
254,536,"Peter Gadenyo",0770115223,,,Migori,,Sales,"ACMG - Africa Commercial Motors Group Ltd Kisii","The customer is interested in purchasing a Dmax, single cabin. Kindly get in touch with him.",,,"Erick Makori",Pending,"2018-09-18 13:12:49","1 days",
255,538,"Robert Chemur",0722968771,rchemur@accleler.co.ke,,Nairobi,"ACCLELER GLOBAL LOGISTICS",Service,"Isuzu East Africa Nairobi","The client has booked for a minor service under vehicle number KCN063A . Model of the vehicle is the EXZ truck and would be brought in by one Dominic Nphenge phone number 0711646352. ",,,"Jascinta Magero",Pending,"2018-09-18 13:19:19","1 days",
256,537,"kipkosgei Amos",0705195907,,,Nandi,,Sales,"Associated Motors Limited Eldoret","The customer is interested in purchasing a Dmax under the running promotion, kindly get in touch with him.",,,"Erick Kirui",Pending,"2018-09-18 13:17:40","1 days",
257,539,"Jackson Njomo",0727748123,,,Nairobi,,Sales,"Isuzu East Africa Nairobi","The customer is interested in the running promotion 60 days repayment period and would like to purchase TFR 86 SC (HR + AC)
.Kindly assist 
",,,"Priscilla G. Mathiu",Pending,"2018-09-18 13:33:20","1 days",
258,540,"Jack Kitima",0720693477/0725520971,,,"Uasin Gishu",,Sales,"Associated Motors Limited Eldoret","The client is interested in a DMAX SC this is with regards to the running promotion. Kindly assist.",,,"Erick Kirui",Pending,"2018-09-18 13:48:46","1 days",
259,541,"Stephen Limo",0725999193,,,"Uasin Gishu County",,Sales,"Associated Motors Limited Eldoret","Limo wants to purchase a Dmax SC 4*4 under the 60 day repayment holiday promotion.",,,"Erick Kirui",Pending,"2018-09-18 14:03:47","1 days",
260,542,"Vincent Kipyego",0789650611/0713807777,,,Siaya,,Sales,"ACMG - Africa Commercial Motors Group Ltd Kisumu","The client is interested in a DMAX SC this is with regards to the running promotion. Kindly assist.",,,"Mohamed Adballah",Pending,"2018-09-18 14:06:44","1 days",
261,543,"Joyce Gakimo",0721487116,,,Nairobi,,Sales,"Isuzu East Africa Nairobi","The client called after hearing the running promotion, she would however like to purchase a 33seater bus. Kindly get in touch with her.      ",,,"Priscilla G. Mathiu",Pending,"2018-09-18 15:03:49","1 days",
262,544,"Jessy Gakima",0733977380,,,Vihiga,,Sales,"ACMG - Africa Commercial Motors Group Ltd Kisumu","The customer would like to purchase a single cab Dmax under the running promotion.",,,"Mohamed Adballah",Pending,"2018-09-18 15:12:16","1 days",
263,545,"Erick Bwasi",0718309291,,,Eldoret,,Sales,"Associated Motors Limited Eldoret","The customer is interested in the running promotion 60 days repayment period and would like to purchase TFR 86 SC (HR + AC)
.Kindly assist 
",,,"Erick Kirui",Pending,"2018-09-18 17:06:38","1 days",
264,546,"Henry Ndichu",0720640296,,,Nairobi,,Sales,"Isuzu East Africa Nairobi","The customer would like to purchase a single cab Dmax, kindly get in touch with him.",,,"Priscilla G. Mathiu",Pending,"2018-09-18 17:41:50","1 days",
265,547,"Evans Migwe",0723600983,,,Kiambu,,Sales,"Thika Motor Dealers Ruaka","The customer is interested in the running promotion 60 days repayment period and would like to purchase a single cab 
.Kindly assist 
",,,"Michael Muriithi",Pending,"2018-09-18 18:23:31","1 days",
266,548,"Benard Okiech",0731945837,,,Kisii,,Sales,"ACMG - Africa Commercial Motors Group Ltd Kisii","The customer is interested in the running promotion 60 days repayment period and would like to purchase TFR 86 SC 
.Kindly assist 
",,,"Erick Makori",Pending,"2018-09-18 19:02:17","1 days",
267,549,"Galson Riang'a",0717029365,,,Kiambu,,Sales,"CFG NAIROBI","The customer is interested in an NKR 26 SEATER BUS - CHASSIS for his matatu business. Kindly assist him with more information.
",,,"GILBERT MUTULU",Pending,"2018-09-19 07:30:44","0 days",
268,550,"Peter Mutinda",0723512682,,,Nairobi,,Sales,"AM - Associated Motors Limited Nairobi","customer is interested in Isuzu vehicles and would like more information on the vehicles.",,,"John Kilonzo",Pending,"2018-09-19 08:03:41","0 days",
269,551,"Edwin Kipkosgei",0706150672,,,"Uasin Gishu",,Sales,"Associated Motors Limited Eldoret","The client is interested in the TFS 86 SC (HR + AC+ AIR BAG) this is with regards to the running promotion. Kindly assist.
",,,"Erick Kirui",Pending,"2018-09-19 08:14:57","0 days",
270,552,"Peter Gatuhi",0796285927,,,"Nyandarua County",,Sales,"ACMG - Africa Commercial Motors Group Ltd Nakuru","Peter wants to purchase a Dmax SC.k=Kindly contact him",,,"Lucy Njoki",Pending,"2018-09-19 08:46:19","0 days",
271,553,"Eric Atinda",0754150472/0718335337,,,Kajiado,,Sales,"Thika Motor Dealers Mlolongo","The client is interested in the TFR 86 SC (HR + AC+ AIR BAG) this is with regards to the running promotion. Kindly assist.
",,,"Gladys Mugo",Pending,"2018-09-19 10:19:16","0 days",
272,554,"Gerald Murungi",0754158387,,,"Garissa County",,Sales,"Thika Motor Dealers Machakos","Gerald wants to purchase a Dmax SC.Kindly contact him.",,,"Winfred Mbuthia",Pending,"2018-09-19 10:21:45","0 days",
273,555,"Steven Ouma",0722262891,,,Nairobi,,Sales,"Ryce East Africa Ltd Nairobi","Steven wants to purchase a Dmax SC under the 60 day repayment holiday promotion.",,,"IDA AKINYI",Pending,"2018-09-19 10:51:54","0 days",
274,559,"Biram Ng'eno",0772109802,,,"TransNzoia County",,Sales,"CFG KITALE","Biram wants to purchase a Dmax SC under the 60 day repayment holiday promotion.",,,"RICHARD KAMAU",Pending,"2018-09-19 11:07:51","0 days",
275,564,"Emmanuel Gishobi",0721403233,,,Kirinyaga,,Sales,"Thika Motor Dealers Karatina","Customer wants to purchase NPR cab under the 60 day repayment holiday promotion.",,,"Dickson Mwangi",Pending,"2018-09-19 11:34:01","0 days",
276,565,"Enos Nyakiti",0736180743,,,Kisumu,,Sales,"ACMG - Africa Commercial Motors Group Ltd Kisumu","The client is interested in the TFS 86 SC (HR + AC+ AIR BAG) this is in regards to the 60 days repayment holiday plan. Kindly assist.
",,,"Mohamed Adballah",Pending,"2018-09-19 11:36:18","0 days",
277,566,"Joseph Ochieng",0745632866/0792345671,,,Garissa,,Sales,"Thika Motor Dealers Thika","Joseph is interested in the TFR 86 SC (HR + AC)
this is with regards to the promotion. Kindly assist.",,,"Betty Kariuki",Pending,"2018-09-19 11:55:30","0 days",
278,567,"Alfred Kirungu",0770507443,,,"Nakuru County",,Sales,"ACMG - Africa Commercial Motors Group Ltd Nakuru","Alfred wants to purchase a Dmax DC manual under the 60 day repayment holiday promotion.",,,"Lucy Njoki",Pending,"2018-09-19 12:07:12","0 days",
279,568,"James Muchui",0743430671,,,Nyeri,,Sales,"Thika Motor Dealers Karatina","The client is interested in the TFR 86 SC (HR + AC) this is with regards to the 60 days repayment holiday plan. Kindly assist.
",,,"Dickson Mwangi",Pending,"2018-09-19 12:21:25","0 days",
280,569,"Willis Ochieng",0733311538,,,Siaya,,Sales,"ACMG - Africa Commercial Motors Group Ltd Kisumu","The customer would like to purchase a single cab Dmax under the running promotion.",,,"Mohamed Adballah",Pending,"2018-09-19 12:33:03","0 days",
281,570,"Eric Kimegeni",0725240853,,,Meru,,Sales,"Associated Motors Limited Meru","The client flashed and I called him back. He is interested in the TFR 86 SC (HR + AC) this is with regards to the running promotion. Kindly assist
",,,"Patrick Wahome",Pending,"2018-09-19 12:36:48","0 days",
282,571,"Meshack kanyoto",0722765365,,,Meru,,Sales,"Associated Motors Limited Meru","The customer is interested in the running promotion 60 days repayment period and would like to purchase a vehicle, he would like to visit the showroom so that he can decide which model he would like to purchase. Kindly assist 
",,,"Patrick Wahome",Pending,"2018-09-19 13:25:41","0 days",
283,572,"Evans Borr",0727898601,,,"Uasin Gishu",,Sales,"Associated Motors Limited Eldoret","Evans wants to purchase a SC 4*4 under the 60 day repayment holiday promotion.",,,"Erick Kirui",Pending,"2018-09-19 13:57:10","0 days",
284,574,"Dominic Talam","0739549654/ 0722327505",,,Kapsabet,,Sales,"Associated Motors Limited Eldoret","The customer would like to purchase a pick up under the running promotion, kindly get in touch with him.",,,"Erick Kirui",Pending,"2018-09-19 14:51:12","0 days",
285,573,"Bernard Shitunde",0725964219/0732996411,,,Kakamenga,,Sales,"ACMG - Africa Commercial Motors Group Ltd Kisumu","The customer is interested in the running promotion 60 days repayment period and would like to purchase TFR 86 SC (HR + AC)
.Kindly assist 
",,,"Mohamed Adballah",Pending,"2018-09-19 14:45:48","0 days",
286,575,"Samson ",0720260877,,Chogoria,Meru,,Sales,"Associated Motors Limited Meru","The client would like to purchase an FSR bus, kindly get in touch with him.",,,"Patrick Wahome",Pending,"2018-09-19 15:24:11","0 days",
287,576,"Mambo Maina",0720770642,,,Kiambu,,Parts,"Isuzu East Africa Nairobi","The customer would like to service with us and change the vehicle clutch but he is requesting to know the price for the clutch first.
Vehicle model: NKR
Registration number:KCE782p
 kindly assist",,,"CLINTON OCHIENG",Pending,"2018-09-19 15:38:25","0 days",
288,577,"Bernard Oluoch",0786871783,,,Kisumu,,Sales,"ACMG - Africa Commercial Motors Group Ltd Kisumu","The customer is interested in the running promotion 60 days repayment period and would like to purchase a single cab 4*4
.Kindly assist 
",,,"Mohamed Adballah",Pending,"2018-09-19 15:45:49","0 days",
289,578,"Mourice Kahara",0720604637,,,Nairobi,,Sales,"Thika Motor Dealers Ruaka","The customer would like to purchase a single cab Dmax under the running promotion.",,,"Michael Muriithi",Pending,"2018-09-19 16:00:54","0 days",
290,579,"Samuel Njau",0725757748,,,Kiambu,,Sales,"Thika Motor Dealers Thika","The customer is interested in the running promotion 60 days repayment period and would like to purchase TFR 86 SC (HR + AC)
.Kindly assist 
",,,"Betty Kariuki",Pending,"2018-09-19 16:45:27","0 days",
291,580,"Fidel ",0724145212,,,Nairobi,"Savannah Cement",Service,"Isuzu East Africa Nairobi","The clients flash disk was stolen and it contains his very important documents, he is requesting that we find it and hand it over to him.",,,"Jascinta Magero",Pending,"2018-09-19 17:04:08","0 days",
292,582,"John Neko",0772378595,,,Nairobi,,Sales,"Isuzu East Africa Nairobi","The customer would like to purchase a pick up under the running promotion. kindly contact him.",,,"Priscilla G. Mathiu",Pending,"2018-09-19 17:59:10","0 days",
293,581,"Arusei Henry",0722687120,,,"Nandi Hills",,Sales,"Associated Motors Limited Eldoret","The customer would like to purchase a single cab pick up under the running promotion.",,,"Erick Kirui",Pending,"2018-09-19 17:55:24","0 days",
294,583,"William Chege",0745839830,,,Nairobi,,Service,"Isuzu East Africa Nairobi","The customer was promised to be contacted so that he can be given more information no when to service his new vehicle since he said it was not after 10,000Km and get more information on his first free service as he is not sure when he should bring it for a check. Kindly assist 
Model: Double cab 4*4 
Registration number: GKB 571T",,,"Jascinta Magero",Pending,"2018-09-19 18:53:05","0 days",
