S/No,"Ticket ID","Customer Name","Telephone No",Email,"Business Type","Physical Address",Town,"Company Name",Category,Sub-category,Issue,Resolution,SLA,"Escalated to",Status,"Escalated on",Age,"Resolution Date"
1,730,"Rose Thiga",0700930803,rose@bapafrica.com,,Nairobi,Nairobi,,Sales,"Isuzu East Africa Nairobi","Rose was not able to receive the quotation of the TFS 86 DC Deluxe that she is interested in purchasing. Kindly resend it using the same email address. Also assist with more information on how she will get the vehicle.",,,"Priscilla G. Mathiu",Pending,"2018-10-08 09:53:25","0 days",
2,729,"Samuel Mwitu",0708378713,,,Meru,Meru,,Sales,"Associated Motors Limited Meru","The customer is interested in purchasing a Dmax SC 4*4. Kindly assist.",,,"Patrick Wahome",Pending,"2018-10-08 09:18:51","0 days",
3,731,"Assa Orwa",0725644156,assaorwa@yahoo.com,,Mombasa,Mombasa,,Sales,"Ryce East Africa Ltd Mombasa","The custmer says that he could not open the pdf file that was sent with the quotation of the NQR 33 SEATER BUS - SEMI LUXURY. Kindly send it again.I have also recommened a dealer for him in Mombasa (Ryce East Africa Ltd). Kindly assist.",,,"AYUB MUSA",Pending,"2018-10-08 10:09:12","0 days",
4,732,"Erick Okuku",0726491410,Erickochieng38@yahoo.com,,Nairobi,Nairobi,,Sales,"Isuzu East Africa Nairobi","The customer is interested in purchasing the Isuzu TFS 86 4x4 Deluxe Double Cab. Kindly assist.",,,"Priscilla G. Mathiu",Pending,"2018-10-08 10:18:54","0 days",
5,733,"Kevin Mathenge",0722716558,mathengekevin@outlook.com,,Nairobi,Nairobi,,Sales,"KCI - Kenya Coach Industries Nairobi","The customer is interested in purchasing an NQR 33 SEATER BUS - CHASSIS and would like the body to be build by the Kenya Coach Industries (Nrb). Kindly assist.
",,,"TIMOTHY OUKO",Pending,"2018-10-08 10:33:15","0 days",
6,734,"Henry Makokha",0725828115,abudihenry@yahoo.com,,Nairobi,Nairobi,,Sales,"Isuzu East Africa Nairobi","The customer requested for an Isuzu N-Series Truck brochure and he received it. He is interested in purchsing the NPR TRUCK BODY ON. Kindly assist.
",,,"Priscilla G. Mathiu",Pending,"2018-10-08 12:32:08","0 days",
7,735,"Simon Tuikong.",0722739597,,,"Uasin Gishu ",Flourspar.,,Sales,"Associated Motors Limited Eldoret","Mr Simeon would like to purchase a single cabin Dmax, kindly get in touch with him.",,,"Erick Kirui",Pending,"2018-10-08 12:47:12","0 days",
8,736,"Gilbert Lang'at",0743721649,,,Nakuru,Kabarak,,Sales,"ACMG - Africa Commercial Motors Group Ltd Nakuru","Gilbert is interested in the Dmax SC 4*2.Kindly contact him.",,,"Lucy Njoki",Pending,"2018-10-08 12:54:54","0 days",
9,737,"Moses Murithi",0702586306,,,Nairobi,Nairobi,,Sales,"Ryce East Africa Ltd Nairobi","The customer would like to purchase TFR 86 SC (HR + AC).kindly assist.",,,"IDA AKINYI",Pending,"2018-10-08 13:31:54","0 days",
10,738,"Job Juma",0792005894,jobjuma10@outlook.com,,Murang'a,Murang'a,,Sales,"Thika Motor Dealers Karatina","The customer is interested in purchasing an Isuzu D-Max Double Cab (Deluxe) and was given a quotation on the same. I have also recommended a dealer. ",,,"Dickson Mwangi",Pending,"2018-10-08 13:34:19","0 days",
11,739,"Peter Macharia",0717309072,Pmachariah.pm@gmail.com,,Nairobi,Nairobi,,Sales,"Isuzu East Africa Nairobi","The customer is interested in purchasing an NQR Truck and he had received a quotation on the same. I have also recommemned a dealer. Kindly assist.",,,"Priscilla G. Mathiu",Pending,"2018-10-08 13:40:00","0 days",
12,740,"Dennis Mugendi",0740077205,,,Embu,Embu,,Sales,"Associated Motors Limited Meru","Dennis is interested in a Dmax DC manual. Kindly contact him.",,,"Patrick Wahome",Pending,"2018-10-08 18:04:45","0 days",
