S/No,"Interaction ID",Date,Customer,Company,"Contact Type","Telephone No","Business Type","Physical Address",Town,Category,Sub-category,Comments,Agent,Escalated
1,609,"2018-Aug-24 12:14:27","Dan Njuki","Techno Brain ",Phone,0722362619,,,Nairobi,Others,Others,"Test call","Eunique Akinyi",No
2,611,"2018-Aug-24 13:00:13","Dan Njuki","Techno Brain ",Phone,0722362619,,,Nairobi,Others,Others,"Test call","Julia Agoo",No
3,612,"2018-Aug-24 13:21:33","Dan Njuki","Techno Brain ",Phone,0722362619,,,Nairobi,Others,Others,"Test call","Julia Agoo",No
4,613,"2018-Aug-24 13:24:00","Kevin ",Safaricom,Phone,0722000000,,,Nairobi,Others,Others,"Test call","Eunice Karanja",No
5,615,"2018-Aug-24 15:03:04","Scholastica Achola","Techno Brain ",Phone,0737693202,,Hurlinghum,Nairobi,Others,Others,"Called to confirm if the line is working.","Esther Wambui",No
6,614,"2018-Aug-24 13:46:24","Samuel Kamanja",,Phone,0710467481,,Nyandarua,Nyandarua,Sales,"ACMG - Africa Commercial Motors Group Ltd Nakuru","Customer wants to purchase the NQR truck under the 60 day repayment holiday promotion.Please contact him.","Eunique Akinyi",Yes
7,616,"2018-Aug-24 15:05:54","Moses Njuguna","Techno Brain ",Phone,0721980385,BPO,Hurlinghum,Nairobi,Others,Others,"Test call from Moses IT","Julia Agoo",No
8,617,"2018-Aug-24 15:13:34","Unknown ",,Phone,0714056163,,unknown,unknown,Others,Others,"Silent call.","Esther Wambui",No
9,618,"2018-Aug-24 17:54:18","Unknown ",,Phone,0723858411,,,Unknown,Others,Others,"The client called and we couldn't communicate because of the network issues. I called him back and he was in a hurry to hung up, claiming he is searching for network and calling us in a few for details.","Julia Agoo",No
10,619,"2018-Aug-24 19:23:33","David Lagat",,Phone,0755600144,,Kericho,Kericho,Promotion,"60 days repayment holiday","The client is interested in a single cab. please contact him as soon as possible.","Julia Agoo",No
11,620,"2018-Aug-24 19:38:55","Unknown ",,Phone,0703013320,,Nairobi,Nairobi,Others,Others,"Called from Isuzu to Confirm if the line is going through.","Esther Wambui",No
