S/No,"Ticket ID","Customer Name","Telephone No",Email,"Business Type","Physical Address","Company Name",Category,Sub-category,Issue,Resolution,SLA,"Escalated to",Status,"Escalated on",Age,"Resolution Date"
1,78,"Lucy Oyella5555",1245332852555,lucyoyella@gmail.com555,"tester biz555","non da555",tbl555,"Vehicle Leasing",,"service date booked - testing",jgjg,,"Nicholas K. Kirui",Closed,"2018-06-22 15:06:00","10 days","2018-07-03 8:11:03"
2,91,"New interaction",Phone,Email,"Business Type","Physical Address",Company,"Fleet and Government","Fleet and Government(Heavy Commercial)",,,,"Paul W. Gitau",Pending,"2018-06-25 12:27:00","24 days",
3,92,"New interaction",Phone,Email,"Business Type","Physical Address",Company,"Fleet and Government","Fleet and Government(Heavy Commercial)",,,,"Paul W. Gitau",Pending,"2018-06-25 12:28:27","24 days",
4,93,"New interaction",Phone,Email,"Business Type","Physical Address",Company,"Fleet and Government","Fleet and Government(Heavy Commercial)",,,,"Paul W. Gitau",Pending,"2018-06-25 12:30:39","24 days",
5,94,"New interaction",Phone,Email,"Business Type","Physical Address",Company,"Fleet and Government","Fleet and Government(Heavy Commercial)",,,,"Paul W. Gitau",Pending,"2018-06-25 12:35:38","24 days",
6,96,"New interaction",Phone,Email,"Business Type","Physical Address",Company,"Fleet and Government","Fleet and Government(Heavy Commercial)",,,,"Paul W. Gitau",Pending,"2018-06-25 12:40:03","24 days",
7,97,"New interaction",Phone,Email,"Business Type","Physical Address",Company,"Fleet and Government","Fleet and Government(Heavy Commercial)",asdasd,,,"Paul W. Gitau",Pending,"2018-06-25 12:40:37","24 days",
8,100,"New interaction",Phone,Email,"Business Type","Physical Address",Company,"Fleet and Government","Fleet and Government(Heavy Commercial)",,,,"Paul W. Gitau",Pending,"2018-06-25 12:48:30","24 days",
9,101,"New interaction",Phone,Email,"Business Type","Physical Address",Company,"Fleet and Government","Fleet and Government(Heavy Commercial)",dasdasd,,,"Paul W. Gitau",Pending,"2018-06-25 12:50:34","24 days",
10,114,"New interaction",Phone,Email,"Business Type","Physical Address",Company,"Fleet and Government","Fleet and Government(Heavy Commercial)",fgfg,,,"Paul W. Gitau",Pending,"2018-06-27 10:37:31","22 days",
11,115,"New interaction",Phone,Email,"Business Type","Physical Address",Company,"Fleet and Government","Fleet and Government(Heavy Commercial)",fdgf,,,"Paul W. Gitau",Pending,"2018-06-27 10:40:48","22 days",
12,116,"New interaction",Phone,Email,"Business Type","Physical Address",Company,"Fleet and Government","Fleet and Government(Heavy Commercial)",cvdfg,,,"Paul W. Gitau",Pending,"2018-06-27 10:42:48","22 days",
13,117,"New interaction",Phone,Email,"Business Type","Physical Address",Company,"Fleet and Government","Fleet and Government(Heavy Commercial)",dsfd,,,"Paul W. Gitau",Pending,"2018-06-27 10:43:33","22 days",
14,120,"New interaction",Phone,Email,"Business Type","Physical Address",Company,"Fleet and Government","Fleet and Government(Heavy Commercial)",sdf,,,"Paul W. Gitau",Pending,"2018-06-27 10:51:09","22 days",
15,121,"New interaction",Phone,Email,"Business Type","Physical Address",Company,"Fleet and Government","Fleet and Government(Heavy Commercial)",ghkjhk,,,"Paul W. Gitau",Pending,"2018-06-27 10:53:15","22 days",
16,98,"New interaction",Phone,Email,"Business Type","Physical Address",Company,"Fleet and Government","Fleet and Government(Heavy Commercial)",sfsdfds,,,"Paul W. Gitau","In Progress","2018-06-25 12:41:07","24 days",
17,88,"New interaction",Phone,Email,"Business Type","Physical Address",Company,"Fleet and Government","Fleet and Government(Heavy Commercial)",gfhfgh,hey,,"Paul W. Gitau",Closed,"2018-06-25 12:12:35","7 days","2018-07-03 7:42:49"
18,89,"New interaction",Phone,Email,"Business Type","Physical Address",Company,"Fleet and Government","Fleet and Government(Heavy Commercial)",asdsa,fhfhfgh,,"Paul W. Gitau",Closed,"2018-06-25 12:24:22","7 days","2018-07-03 7:44:14"
19,90,"New interaction",Phone,Email,"Business Type","Physical Address",Company,"Fleet and Government","Fleet and Government(Heavy Commercial)",,"ticket closed",,"Paul W. Gitau",Closed,"2018-06-25 12:26:39","7 days","2018-07-03 7:40:06"
20,95,"New interaction",Phone,Email,"Business Type","Physical Address",Company,"Fleet and Government","Fleet and Government(Heavy Commercial)",,fghfghfghfg,,"Paul W. Gitau",Closed,"2018-06-25 12:36:57","7 days","2018-07-03 8:12:06"
21,86,"TEST ",0787412558,test@test.com,"test business",chennai,TEST,Sales,Isuzu,test,,,ruth.mugugu@isuzu.co.ke,Pending,"2018-06-25 11:44:14","24 days",
22,87,"TEST ",0787412558,test@test.com,"test business",chennai,TEST,,Communication,,,,cgerwon@gmail.com,Pending,"2018-06-25 11:46:58","24 days",
23,85,"test ",0713423454,Dummy,Dummy,Dummy,Dummy,Sales,"CFG KITALE",test,,,"SALOMON MWANGI",Pending,"2018-06-25 11:05:51","24 days",
24,99,"Dummy ",Dummy,Dummy,Dummy,Dummy,Dummy,"Fleet and Government","Fleet and Government(Heavy Commercial)",dfgsdsd,,,"Paul W. Gitau",Pending,"2018-06-25 12:43:19","24 days",
25,102,"Dummy ",Dummy,Dummy,Dummy,Dummy,Dummy,"Fleet and Government","Fleet and Government(Heavy Commercial)","Using color to add meaning only provides a visual indication, which will not be conveyed to users of assistive technologies – such as screen readers. Ensure that information denoted by the color is either obvious from the content itself (e.g. the visible text), or is included through alternative means, such as additional text hidden with ",,,"Paul W. Gitau",Pending,"2018-06-25 13:58:37","24 days",
26,106,"Josphat Rasugu",0714164793,bogitajosphat@gmail.com,Motors,Kasa,"Josphat co.","Fleet and Government","Fleet and Government(Heavy Commercial)",fdgf,,,"Paul W. Gitau",Pending,"2018-06-27 09:05:32","22 days",
27,108,"Josphat Rasugu",0714164793,bogitajosphat@gmail.com,Motors,Kasa,"Josphat co.","Fleet and Government","Fleet and Government(Heavy Commercial)","dir test",,,"Paul W. Gitau",Pending,"2018-06-27 09:29:18","22 days",
28,109,"Josphat Rasugu",0714164793,bogitajosphat@gmail.com,Motors,Kasa,"Josphat co.","Fleet and Government","Fleet and Government(Heavy Commercial)",hjhj,,,"Paul W. Gitau",Pending,"2018-06-27 09:31:02","22 days",
29,110,"Josphat Rasugu",0714164793,bogitajosphat@gmail.com,Motors,Kasa,"Josphat co.","Fleet and Government","Fleet and Government(Heavy Commercial)",ghjh,,,"Paul W. Gitau",Pending,"2018-06-27 09:32:07","22 days",
30,131,"Josphat Rasugu",0714164793,bogitajosphat@gmail.com,Motors,Kasa,"Josphat co.","Fleet and Government","Fleet and Government(Heavy Commercial)",ghjhj,,,"Paul W. Gitau",Pending,"2018-06-27 11:06:49","22 days",
31,105,"Josphat Rasugu",0714164793,bogitajosphat@gmail.com,Motors,Kasa,"Josphat co.","Fleet and Government","Fleet and Government(Heavy Commercial)",sdfd,close,,"Paul W. Gitau",Closed,"2018-06-27 09:03:35","5 days","2018-07-03 8:08:56"
32,107,"Josphat Rasugu",0714164793,bogitajosphat@gmail.com,Motors,Kasa,"Josphat co.","Fleet and Government","Fleet and Government(Heavy Commercial)",jkj,close,,"Paul W. Gitau",Closed,"2018-06-27 09:15:36","5 days","2018-07-03 8:13:46"
33,103,"No Dummy","No Dummy ","No Dummy ","No Dummy ","No Dummy ","No Dummy ","Fleet and Government","Fleet and Government(Heavy Commercial)",fghg,7867867,,"Paul W. Gitau",Closed,"2018-06-27 08:33:10","5 days","2018-07-03 8:12:33"
34,104,"Dummy ",Dummy,Dummy,Dummy,Dummy,Dummy,"Fleet and Government","Fleet and Government(Heavy Commercial)",fgf,,,"Paul W. Gitau",Pending,"2018-06-27 08:33:41","22 days",
35,111,"Dummy ",Dummy,Dummy,Dummy,Dummy,Dummy,"Fleet and Government","Fleet and Government(Heavy Commercial)",dummy,,,"Paul W. Gitau",Pending,"2018-06-27 09:37:22","22 days",
36,112,"Dummy ",Dummy,Dummy,Dummy,Dummy,Dummy,"Fleet and Government","Fleet and Government(Heavy Commercial)",fdsfsdf,,,"Paul W. Gitau",Pending,"2018-06-27 09:54:37","22 days",
37,113,"Dummy ",Dummy,Dummy,Dummy,Dummy,Dummy,"Fleet and Government","Fleet and Government(Heavy Commercial)",dummy,,,"Paul W. Gitau",Pending,"2018-06-27 10:28:17","22 days",
38,118,"Dummy ",Dummy,Dummy,Dummy,Dummy,Dummy,"Fleet and Government","Fleet and Government(Heavy Commercial)",sfsd,,,"Paul W. Gitau",Pending,"2018-06-27 10:44:12","22 days",
39,119,"Dummy ",Dummy,Dummy,Dummy,Dummy,Dummy,"Fleet and Government","Fleet and Government(Heavy Commercial)",sfsd,,,"Paul W. Gitau",Pending,"2018-06-27 10:44:47","22 days",
40,122,"Dummy ",Dummy,Dummy,Dummy,Dummy,Dummy,"Fleet and Government","Fleet and Government(Heavy Commercial)",jiopiop,,,"Paul W. Gitau",Pending,"2018-06-27 10:55:31","22 days",
41,123,"Dummy ",Dummy,Dummy,Dummy,Dummy,Dummy,"Fleet and Government","Fleet and Government(Heavy Commercial)",jiopiop,,,"Paul W. Gitau",Pending,"2018-06-27 10:55:58","22 days",
42,124,"Dummy ",Dummy,Dummy,Dummy,Dummy,Dummy,"Fleet and Government","Fleet and Government(Heavy Commercial)",ghjh,,,"Paul W. Gitau",Pending,"2018-06-27 10:57:37","22 days",
43,125,"Dummy ",Dummy,Dummy,Dummy,Dummy,Dummy,"Fleet and Government","Fleet and Government(Heavy Commercial)",ghjh,,,"Paul W. Gitau",Pending,"2018-06-27 10:58:27","22 days",
44,126,"Dummy ",0756345689,Dummy,Dummy,Dummy,Dummy,"Fleet and Government","Fleet and Government(Heavy Commercial)",ghjh,,,"Paul W. Gitau",Pending,"2018-06-27 10:59:22","22 days",
45,127,"Dummy ",0756345689,Dummy,Dummy,Dummy,Dummy,"Fleet and Government","Fleet and Government(Heavy Commercial)",ghjh,,,"Paul W. Gitau",Pending,"2018-06-27 11:00:48","22 days",
46,128,"Dummy ",0756345689,Dummy,Dummy,Dummy,Dummy,"Fleet and Government","Fleet and Government(Heavy Commercial)",ghjh,,,"Paul W. Gitau",Pending,"2018-06-27 11:02:05","22 days",
47,129,"Dummy ",0756345689,Dummy,Dummy,Dummy,Dummy,"Fleet and Government","Fleet and Government(Heavy Commercial)",ghjh,,,"Paul W. Gitau",Pending,"2018-06-27 11:03:35","22 days",
48,130,"Dummy ",0756345689,Dummy,Dummy,Dummy,Dummy,"Fleet and Government","Fleet and Government(Heavy Commercial)",ghjh,,,"Paul W. Gitau",Pending,"2018-06-27 11:05:32","22 days",
49,132,"Dummy ",Dummy,Dummy,Dummy,Dummy,Dummy,"Fleet and Government","Fleet and Government(Heavy Commercial)",test,,,"Paul W. Gitau",Pending,"2018-07-02 18:17:24","17 days",
50,133,"Dummy ",0714164793,Dummy,Dummy,Dummy,Dummy,"Fleet and Government","Fleet and Government(Heavy Commercial)",test,,,"Paul W. Gitau",Pending,"2018-07-02 18:19:14","17 days",
51,134,"dfg ",0714164793,dfg,,,fgf,"Fleet and Government","Fleet and Government
",sdfsd,,,,Pending,"2018-07-06 09:55:53","13 days",
