S/No,"Ticket ID","Customer Name","Telephone No",Email,"Business Type","Physical Address",Town,"Company Name",Category,Sub-category,Issue,Resolution,SLA,"Escalated to",Status,"Escalated on",Age,"Resolution Date"
1,1157,"Reuben Kimutai",0756535722/0727615493,,,"Uasin Gishu",Eldoret,,Service,"Associated Motors Limited Eldoret","Reuben Kimutai called to request for a discount on service price be reduced from 23,000 to 20,000, he says he has serviced at AM Eldoret for a long time and sometimes he should be discounted.",,,"Samuel Karanja",Pending,"2018-12-14 17:06:49","0 days",
2,1158,"Reuben Kimutai",0756535722/0727615493,,,"Uasin Gishu",Eldoret,,Service,"Associated Motors Limited Eldoret","Reuben Kimutai called to request for a discount on service price be reduced from 23,000 to 20,000, he says he has serviced at AM Eldoret for a long time and sometimes he should be discounted.",,,"Samuel Karanja",Pending,"2018-12-14 17:06:53","0 days",
3,1155,"James Kuria",0765714301,james.mkuria@gmail.com.,,Nairobi,Nairobi,,Sales,"Isuzu East Africa Nairobi","James would like a quotation of the NPR truck cab and NPR truck body on. Kindly send the same to him.",,,"Priscilla G. Mathiu",Pending,"2018-12-14 07:27:02","0 days",
4,1156,"Daniel Wafula",0708250563,,,Nairobi,Nairobi,,Sales,"Associated Motors Limited Eldoret","The customer called with regards to the 60 days repayment period and he is interested in purchasing a vehicle but not sure which one. He is currently in Eldoret kindly assist.",,,"Erick Kirui",Pending,"2018-12-14 11:37:54","0 days",
