S/No,"Ticket ID","Customer Name","Telephone No",Email,"Business Type","Physical Address",Town,"Company Name",Category,Sub-category,Issue,Resolution,SLA,"Escalated to",Status,"Escalated on",Age,"Resolution Date"
1,1104,"JOHN KINYI",0722832772,,,Nairobi,Nairobi,,"Dealers complaints","Isuzu East Africa - Service","John is a very disappointed customer. His vehicle was booked in for hazard lights fixing which has not been done up to date and nobody is explaining to him why. All he knows is that there is a part missing but no one has bothered to tell him when this part will be available or where he can get it from. He cannot even take the vehicle to the road and feels let down by our service workshop. He wishes to be told if and when the hazard lights can be fixed or if he should seek help from juakali mechanics. His vehicle is KCC819W, VIN: ADMARRDR9C4708738.
",,,"Jascinta Magero",Pending,"2018-12-05 19:29:54","0 days",
2,1103,"Patrick Oguma",0727901615,,,Nairobi,Nairobi,"CITY CLOCK",Service,"Isuzu East Africa Nairobi","The customer says, ""The problem with the vehicle is that the left front tyre is making a funny noise and this is an issue that had been discussed before but it has not been repaired. The left side door of the vehicle also gets stuck and all these issues were explained to the service advisors."" The vehicle is an Isuzu Trooper, Reg. No. KAJ 514W and the VIN JACUBS25GV7104981. Kindly assist.


","I have spoken to  this customer and will bring back the vehicle when he finds it convenient",,"Jascinta Magero",Closed,"2018-12-05 14:21:02","0 days","2018-12-06 9:04:37"
