S/No,"Interaction ID",Date,Customer,Company,"Contact Type","Telephone No","Business Type","Physical Address",Town,Category,Sub-category,Comments,Agent,Escalated
1,2020,"2018-Nov-01 9:04:42","Scholastica Achola","Techno Brain ","Inbound Phone",0737693202,,Hurlinghum,Nairobi,"Test Call","Test Call","Test interaction","Eunique Akinyi",No
2,2118,"2018-Nov-06 17:51:11","Anonymous ",,"Inbound Phone",Anonymous,,,Unknown,"Short call","Prank call","customer calls then hungs up.","Eunique Akinyi",No
3,2010,"2018-Oct-31 10:49:50","Hellen Waruguru",,"Inbound Phone",0716392945,,Roysambu.,Nairobi,Promotion,"60 days repayment holiday","Hellen called to inquire about the deposit for buying a dmax.She referred her aunt to us for a purchase.","Eunique Akinyi",No
4,2013,"2018-Oct-31 12:14:17","Priscilla G.","Isuzu East Africa","Inbound Phone",0720636589,,,Nairobi,"Follow up","Pending escalation - Customer","Priscilla called after getting a missed call from me with regards to a pending escalation that had been sent to her.","Eunique Akinyi",No
5,2026,"2018-Nov-01 11:43:39","Priscilla G.","Isuzu East Africa","Inbound Phone",0720636589,,,Nairobi,"Follow up","Pending escalation - Customer","Priscilla called after finding a missed call from us with regards to a customer that had been escalaed to her. I asked Esther to call her back since she is the one who did the escalation and called her.","Eunique Akinyi",No
6,2030,"2018-Nov-01 13:32:43","Gladys Mugo","Thika Motor Dealers","Inbound Phone",0701505084,,Machakos,Mlolongo,Parts,Enquiries,"Gladys works at Thika Motor dealers Mlolongo and she called us after she received a missed call from our end. Esther had tried to call her for a parts inquiry. I advise that she would be called back. Esther was able to call her back with more information.","Adler Chenro",No
7,2095,"2018-Nov-06 8:05:53","Michael Muriithi","Thika Motor Dealers Ruaka","Inbound Phone",0701504572,,Kiambu,Ruaka,"Short call","Call dropped","Michael flashed ,i called back but he could not hear me ,Adler called him back and assisted.
","Eunice Karanja",No
8,2077,"2018-Nov-04 16:12:58","Gerald Murungi",,"Inbound Phone",0754158387,,"Garissa County",Garissa,"Short call","Call dropped","Gerald tried o contact us but the call dropped, upon being called back his phone was off.","Esther Wambui",No
9,2083,"2018-Nov-05 9:44:52","Charles Isaboke","DCI HQ","Inbound Phone",0720566821/0795537563,,Nairobi,"DCI HQ",Service,"Service Booking","The customer contacted us to book a service for his Dmax. I booked his vehicle for service on 6/11/18 at 7:30 a.m.","Adler Chenro",No
10,2053,"2018-Nov-02 11:36:10","Esther Wambui",,"Inbound Phone",0708427133,,Kitale,Kitale,Sales,"Isuzu East Africa Nairobi",,"Esther Wambui",No
11,2075,"2018-Nov-04 14:50:09","Esther Wambui",,"Inbound Phone",0708427133,,Kitale,Kitale,"Test Call","Test Call","Esther called to text on her system since it had some issues.","Eunice Karanja",No
12,2100,"2018-Nov-06 8:53:51","Loise Kamahuha",,"Inbound Phone",0721252708,,Nairobi,Nairobi,Service,Feedback,"The customer says that she had brought in her vehicle for service and after the service is when she realized the vehicle's fresher leakage was not in a good condition and she requested to be sent for the quotation of the part. She claims that the price is a  bit too high (requesting that you kindly explain why) and she would like to talk to an advisor so that they can be able to come to an agreement. The vehicle is an Isuzu FVR Truck and the Reg. No. is KBT802A. Kindly assist.","Adler Chenro",Yes
13,2018,"2018-Nov-01 8:49:12","Susan Wanjiru",,USSD*824#,0720141189,,Nairobi,Nairobi,Enquiries,"Dealer Location","Susan contacted us via our USSD code, she wanted to find out where our Nakuru dealer is located.","Esther Wambui",No
14,2042,"2018-Nov-02 8:44:41","David Irungu",,USSD*824#,0727607983,,Nairobi,Nairobi,Enquiries,"USSD *824","customer made inquiries on our USSD for FRR diff but he did not pick his phone when i contacted him.","Eunique Akinyi",No
15,2032,"2018-Nov-01 13:55:54","Joseph Katunda",,"Outbound phone",0725138578/0753441834,,Nairobi,Nairobi,Service,Complaints,"Joseph says the battery went dead after a few days, but since he is not the owner of the vehicle, he does not know if it’s the battery that is problematic or the vehicle. The vehicle is a Dmax KBR315K.","Eunique Akinyi",Yes
16,2068,"2018-Nov-02 18:12:25","Unknown ",,"Inbound Phone",0772100380,,Unknown,Unknown,"Short call","Call dropped","customer called then hung up.When i called back they answered but hung up on me.","Eunice Karanja",No
17,2005,"2018-Oct-31 7:42:59","Wesley ",,"Inbound Phone",0757864150,,Unknown,Unknown,"Short call","Call dropped","customer called and hung up.I called back but he disconnected the call.","Eunique Akinyi",No
18,2006,"2018-Oct-31 9:20:31","MUTEMBEI ",,"Inbound Phone",0722529079,,,NAIROBI,Service,"Service Booking","ENGINE KNOCK","Fridah Kohogo",No
19,2007,"2018-Oct-31 10:06:21","Isaac Sidera",,"Inbound Phone",0712690335,,Nairobi,Ruaka,Service,"Thika Motor Dealers Ruaka","Isaac wants to bring in his Dmax Sc 4*2 (KBD368D) for diagnosis on 1st Nov 2018 at 3 p.m.The left rear axle is problematic and his efforts to change the seal and bearings have not been successful.Kindly contact him.","Eunique Akinyi",Yes
20,2008,"2018-Oct-31 10:28:53","Erick Ogweno",,"Inbound Phone",0718538962,,Migori,Migori,Promotion,"60 days repayment holiday","Erick is interested in Dmax Sc 4*2 under the 60-day repayment holiday promotion.","Eunique Akinyi",Yes
21,2009,"2018-Oct-31 10:39:47","Joseph Luthuli",,"Outbound phone",0713838073,,Nairobi,Nairobi,"Short call","Prank call","customer flashed, i called back and he said it was a wrong number.","Eunique Akinyi",No
22,2011,"2018-Oct-31 10:50:51","Margaret Njoki",,"Outbound phone",0738679661,,Nairobi,Kayole,Sales,"Isuzu East Africa Nairobi","Margaret is interested in the Dmax SC 4*2(HR+AC). Kindly contact her.","Eunique Akinyi",Yes
23,2012,"2018-Oct-31 12:04:43","Michael Gachie","Shamas Motor Parts Limited","Inbound Phone",0714754943,,Nairobi,"Baricho Road",Sales,Enquiries,"Michael would like to get a quotation of the NHR and NKR trucks prices, that have low dropside bodies, double dropside bodies and fully enclosed bodies.","Eunique Akinyi",Yes
24,2014,"2018-Oct-31 15:45:10","GEORGE ",,"Inbound Phone",0796240508,,,NAIROBI,Service,"Service Booking","SERVICE BOOKING","Fridah Kohogo",No
25,2015,"2018-Nov-01 8:19:59","KAKAI BISAI",,"Inbound Phone",0706613114,,,NAIROBI,Service,"Service Booking","BKAKE PAD REPAIRS","Fridah Kohogo",No
26,2016,"2018-Nov-01 8:26:24","Jeffrey Chege",,"Inbound Phone",0721327646,,Murang'a,Murang'a,Promotion,"60 days repayment holiday","Jeffrey is interested in Dmax SC 4*4 under the 60-day repayment holiday promotion.","Eunique Akinyi",Yes
27,2017,"2018-Nov-01 8:29:31","Termasil sales",,"Inbound Phone",254721307892,,Nairobi,Mlolongo.,Parts,"Thika Motor Dealers Mlolongo","The customer was interested in purchasing front brake adjuster for the EXZ , ","Esther Wambui",Yes
28,2019,"2018-Nov-01 9:04:34","Cresent Mutumi",,USSD*824#,254721406655,,Nairobi,Nairobi,Sales,Enquiries,"Cresent wanted to be sent for a brochure for isuzu dmax, ","Esther Wambui",No
29,2021,"2018-Nov-01 9:21:58","Michael Gachie",,USSD*824#,254714754943,,Nairobi,Nairobi,Enquiries,"Vehicle Prices","Mr Gachie would like to be sent for a quotation for a single cabin pick up and the NHR truck, with and without a body. ","Esther Wambui",Yes
30,2022,"2018-Nov-01 9:42:11","Yusuf Moenga",,"Inbound Phone",0706021259,,Nairobi,Kahawa,Others,"Job Enquiry","Yusuf called to inquire if there was a vacancy for customer support. I gave him job application email address.","Eunique Akinyi",No
31,2024,"2018-Nov-01 9:56:58","Yusuf Moenga",,"Inbound Phone",0706021259,,Nairobi,Kahawa,Others,"Job Enquiry","Yusuf called to confirm the email address for job applications","Eunique Akinyi",No
32,2025,"2018-Nov-01 9:57:42","Yusuf Moenga",,"Inbound Phone",0706021259,,Nairobi,Kahawa,Others,"Job Enquiry","Yusuf called to inform us that he had already sent his application and will be waiting for feedback from us.","Eunique Akinyi",No
33,2023,"2018-Nov-01 9:53:54","Nelson Nyoike",,USSD*824#,254722860138,,Nairobi,Nairobi,Sales,Enquiries,"Nelson wanted to find out the price for Isuzu FRR truck which he was sent for.","Esther Wambui",No
34,2027,"2018-Nov-01 12:26:49","Philip Kipropet","University of Nairobi","Inbound Phone",0728000545,,Nairobi,Nairobi,"Short call","Call dropped","The customer called after he got a missed call from us. The call dropped before we could have an interaction but he was called back immediately by Eunique who conducted a PSFU.","Adler Chenro",No
35,2057,"2018-Nov-02 13:05:56","Philip Kipropet","University of Nairobi","Outbound phone",0728000545,,Nairobi,Nairobi,Service,Complaints,"Some items were removed and not put back i.e. engine cover and cup holder. I was called on 30th and told that the cup holder had been found but the engine cover I have no news. Kindly update him as the vehicle is still at Isuzu.
","Eunice Karanja",Yes
36,2028,"2018-Nov-01 12:30:32","Joseph Kilonzo",,"Inbound Phone",0728876686,,Makueni,Makueni,"Call back",PSFU,"The customer called us after he got a missed call from our end. One of our agents wanted to conduct a PSFU and I was able to do the same. He was satisfied with our service and only complained about delays at the reception.","Adler Chenro",No
37,2033,"2018-Nov-01 14:20:21","Joseph Kilonzo",,"Inbound Phone",0728876686,,Makueni,Makueni,Service,Complaints,"The customer complains that every time he brings in his vehicle for service they never call him to inform him of the status/ progress of the vehicle. He has to keep calling them to ask on the status, they tell him they will call him after a few minutes only to end up calling them again. He also says that they did not give an explanation of work to be performed and estimation provided before the start of the service. The vehicle is a Dmax double cab 4*4, Reg. No. 17CG006A and the VIN. No. ADMASCDR6C4694220. Kindly assist.","Adler Chenro",Yes
38,2029,"2018-Nov-01 12:31:13","Joshua Nzioki",,"Inbound Phone",0700368088,,"Makueni ",Wote,"Call back",PSFU,"The client called to give right party contact for who should give PSFU feedback.","Esther Wambui",No
39,2031,"2018-Nov-01 13:41:54","Simba Omondi","NPS Leasing Internal Account: Kiunga Police Station","Outbound phone",0713806631,,Lamu,Kiunga,Service,Complaints,"Mr Simba's FTS truck GKB391R had a breakdown and a mechanic from AM Mombasa was sent to check it last week but one. The mechanic said that the vehicle required a spare part that they did not have and they would contact Isuzu. But the mechanic has not been seen since and the vehicle is currently at Kiunga Police station. Mr Simba has also not gotten any reasonable feedback from AM or Isuzu with regards to when they should expect the mechanic.","Eunique Akinyi",Yes
40,2036,"2018-Nov-01 14:35:26","Martin Kiambi",,"Outbound phone",0722619694,,Nairobi,Nairobi,Sales,Complaints,"Martin complains that anytime he washes his vehicle water goes into the carrier body. His vehicle is A Dmax Dc Manual-KCS074A.
","Eunique Akinyi",Yes
41,2034,"2018-Nov-01 14:23:27","Elijah Anyona",,"Outbound phone",0722362607,,Meru,Meru,Promotion,"service campaign","customer called but call dropped, I called back and he was inquiring about the service campaign for Dmax.Unfortunately since he is in Meru he will not make it to service at Isuzu.","Eunique Akinyi",No
42,2035,"2018-Nov-01 14:31:58","Paul Kyalo",,USSD*824#,254710584208,,"	Garissa","	Garissa",Enquiries,"Dealer Location","Paul Kyalo wanted to know where our nearest dealer is from Garissa, directed to TMD Thika.","Esther Wambui",No
43,2037,"2018-Nov-01 14:37:06","Michael Ruthi",,USSD*824#,"254721622123	",,Nairobi,cbd,Enquiries,"Dealer Location","Michael Ruthi Karanja contacted us via the USSD code and wanted to know where our nearest dealer is located.","Esther Wambui",No
44,2038,"2018-Nov-01 14:45:07","John kiplangat",,USSD*824#,254721393094,,Eldoret,Eldoret,Sales,"Associated Motors Limited Eldoret","Mr John would like to purchase an MUX, kindly contact him","Esther Wambui",Yes
45,2039,"2018-Nov-01 15:20:36","Charles Gichaga",,"Inbound Phone",0727728079,,Laikipia,Nyahururu,Service,"Service Package","The customer called us to inquire on an SMS that was sent to him that was a service campaign to Dmax customers. I explained the campaign and advised that when next he wants to bring in his vehicle for service he can always contact us so that we can assist him. He said when the vehicle mileage is near 10,000km, he will give us a call.","Adler Chenro",No
46,2040,"2018-Nov-01 16:20:21","Unknown ",,"Inbound Phone",0746613169,,Unknown,Unknown,"Short call","Call dropped","The customer called us and there was a network failure so we could not communicate well. He dropped the call I called again the same thing happened. I tried to call him again he did not pick up.","Adler Chenro",No
47,2041,"2018-Nov-02 8:31:12","Charles Mutua",,"Outbound phone",0740188555,,Nairobi,Nairobi,Service,Complaints,"Charles is complaining that the exhaust pipe for his NHR KCR837U
is loose. However he also says he did not communicate the same when he brought it in for service.","Eunique Akinyi",Yes
48,2043,"2018-Nov-02 9:04:13","Anthony Maingi",,USSD*824#,0705779500,,Machakos,Machakos,Enquiries,"USSD *824","Antony had inquired about our FSR and Dmax DC.He says he got the brochure and he is waiting for an approval then he will make up his mind about purchasing the DC.","Eunique Akinyi",No
49,2101,"2018-Nov-06 9:07:44","Anthony Maingi",,USSD*824#,0705779500,,Machakos,Machakos,Enquiries,"Dealer Location","The customer had contacted us via our USSD code and he is interested in purchasing a TFS 85 DC LUXURY AUTOMATIC -ACCESSORISED. Kindly assist.
","Adler Chenro",Yes
50,2051,"2018-Nov-02 11:10:31","Dominic Ochieng",,USSD*824#,0724880940,,Unknown,Unknown,Enquiries,"Vehicle Prices","Dominic had contacted us via USSD about MUx but he has not answered my calls.","Eunique Akinyi",No
51,2044,"2018-Nov-02 9:20:03","David Muhato",,USSD*824#,0722522827,,Nairobi,"Ngong Road",Enquiries,"Vehicle Prices","David asked about prices for NHR and NKR.He says they are planning on making a purchase late Dec/early Jan and will contact us when ready.","Eunique Akinyi",No
52,2046,"2018-Nov-02 9:36:00","Oscar Wanyonyi",,USSD*824#,0724337055,,Kitale,Kitale,Enquiries,"Dealer Location","I have tried contacting Oscar but the call is blocked thus cannot go through.","Eunique Akinyi",No
53,2045,"2018-Nov-02 9:29:09","John Langat.",,"Inbound Phone",254702151518,,Nakuru,Nakuru,"Dealers complaints","Isuzu East Africa Nairobi","Mr John had replaced his water pump at Isuzu East Africa early in January but it started leaking 6 months later. He is complaining  that the technicians did not do a thorough job, his vehicle is currently at Isuzu East Africa, He needs to be updated on the progress of the work and when he should pick the vehicle up. Kindly respond to him.","Esther Wambui",Yes
54,2047,"2018-Nov-02 9:47:39","John Langat.",,"Inbound Phone",254702151518,,Nakuru,Nakuru,"Dealers complaints","Isuzu East Africa Nairobi","Mr John called to clarify that the water pump was replaced on 25th june 2018.
","Esther Wambui",No
55,2052,"2018-Nov-02 11:15:52","Norvice Oketch",,USSD*824#,0706233994,,Nairobi,Nairobi,Enquiries,"Vehicle Prices","Norvice inquired about Mux and Dmax but has not answered my calls.","Eunique Akinyi",No
56,2048,"2018-Nov-02 10:37:42","Ronny Otieno",,USSD*824#,0717558609,,Mombasa,Mombasa,Enquiries,"Vehicle Prices","Ronny is interested in the NQR and he will contact us next week to further discuss the purchase.","Eunique Akinyi",No
57,2049,"2018-Nov-02 10:42:55","Steven Karibu","Police Headquarters","Outbound phone",0717322958,,Nairobi,Nairobi,Service,Complaints,"The front right wheel makes a lot of noise. Steven has communicated this very often and the wheel was even changed at one time but the problem is still persistent. The vehicle is GKB693F, vin no: JAAN1R66PC7101987.

","Eunique Akinyi",Yes
58,2050,"2018-Nov-02 10:54:52","Sadiq Mwangi","Safaricom Ltd","Outbound phone",0723803802,,Nairobi,Westlands,Service,Complaints,"The vehicle is making odd screeching sounds when driving. The vehicle is FVZ-KCR094C.","Eunique Akinyi",Yes
59,2054,"2018-Nov-02 11:37:36","Phanuel Gitahi",,USSD*824#,0723993642,,Unknown,Unknown,Sales,Enquiries,"Phanuel requested for a brochure for Mu-x, which he got but it failed to open on his end so he is requesting that we resend it.","Eunique Akinyi",Yes
60,2055,"2018-Nov-02 12:04:39","Subai Ambrose",,"Inbound Phone",0722932114,,Kitale,Kitale,Service,"Service Package","Mr Subai would like to bring in his vehicle for service, he would like to be given an estimation of how much it would cost to  change the oil filter, the brakes and pads together with the labor charges. His vehicle model is a single cabin D max, his email address is wanyamaj@hotmail.com, Kindly get in touch with him.","Esther Wambui",Yes
61,2056,"2018-Nov-02 12:15:57","TREDCOR (K)","TREDCOR (K) LTD","Inbound Phone","0723774886 ",,Nairobi,Nairobi,"Call back",PSFU,"customer flashed Eunique called back to conduct PSFU but he did not pick the call.","Eunice Karanja",No
62,2058,"2018-Nov-02 13:34:28","Maxwell Babge",,USSD*824#,0712447369,,Kitale,Endebess,Enquiries,"Dealer Location","Maxwell asked about our dealer location but he hung up when i called him. i however sent an sms with the location.","Eunique Akinyi",No
63,2063,"2018-Nov-02 15:13:20","Maxwell Babge",,"Inbound Phone",0712447369,,Kitale,Endebess,"Short call","Call dropped","The customer flashed I called back but the phone was switched off","Eunice Karanja",No
64,2059,"2018-Nov-02 13:42:38","Victor Kiunyu",,USSD*824#,0717198256,,Nairobi,Nairobi,Sales,Enquiries,"Victor was sent for a brochure for MU-x that does not open. Kindly resend it.","Eunique Akinyi",Yes
65,2060,"2018-Nov-02 13:50:58","Wanjiru Margaret","Associated Motors",USSD*824#,0720332953,,Nairobi,Nairobi,Sales,Enquiries,"Margaret requested for a brochure for a customer which was sent to her.","Eunique Akinyi",No
66,2061,"2018-Nov-02 14:15:46","Velma ",,"Inbound Phone",254711806954,,Kisii,kisii,"Short call","Call dropped","Velma tried to reach us but the call dropped, upon being called back she said it was wrong number.","Esther Wambui",No
67,2062,"2018-Nov-02 14:20:17","ACE NAIROBIONE","ACE NAIROBIONE LTD","Inbound Phone",0713407943,,,NAIROBI,Service,"Service Booking","BOOKING TWO VEHICLES, KCS 129A AND KCS 130A ","Fridah Kohogo",No
68,2064,"2018-Nov-02 17:22:39","Lydia Wafula",,"Inbound Phone",0753489574,,"Uasin Gishu County.",Eldoret,"Short call","Call dropped","Call dropped i called back but the number was busy ","Eunice Karanja",No
69,2065,"2018-Nov-02 17:22:45","Lydia Wafula",,"Outbound phone",0753489574,,"Uasin Gishu County.",Eldoret,"Short call","Non Isuzu related","The customer called us and there was a network failure so we could not communicate well. I called her again and she claimed that we had tried to call her so she was returning the call. I tried to get her details but she hung up the call.","Adler Chenro",No
70,2066,"2018-Nov-02 17:58:48","Lydia Wafula",,"Inbound Phone",0753489574,,"Uasin Gishu County.",Eldoret,"Short call","Prank call","prank call","Eunice Karanja",No
71,2067,"2018-Nov-02 18:06:54","Lydia Wafula",,"Inbound Phone",0753489574,,"Uasin Gishu County.",Eldoret,"Short call","Prank call","The customer called, put me on hold and then hang up the call.","Adler Chenro",No
72,2076,"2018-Nov-04 15:58:54","Lydia Wafula",,"Outbound phone",0753489574,,"Uasin Gishu County.",Eldoret,"Short call","Non Isuzu related","Customer flashed I called back and she claimed she didn't call us.","Eunice Karanja",No
73,2084,"2018-Nov-05 9:58:38","Lydia Wafula",,"Inbound Phone",0753489574,,"Uasin Gishu County.",Eldoret,"Short call","Prank call","prank call","Eunice Karanja",No
74,2085,"2018-Nov-05 9:59:55","Lydia Wafula",,"Inbound Phone",0753489574,,"Uasin Gishu County.",Eldoret,"Short call","Prank call","The customer called and when I picked she had put the radio on so we could not communicate. I called her again she picked and then hang up the call.","Adler Chenro",No
75,2086,"2018-Nov-05 10:30:22","Lydia Wafula",,"Inbound Phone",0753489574,,"Uasin Gishu County.",Eldoret,"Short call","Prank call","prank call","Eunice Karanja",No
76,2087,"2018-Nov-05 11:45:34","Lydia Wafula",,"Inbound Phone",0753489574,,"Uasin Gishu County.",Eldoret,"Short call","Prank call","The customer called then hang up the phone.","Adler Chenro",No
77,2069,"2018-Nov-03 9:20:31","Unknown ",,"Outbound phone",0701644771,,Unknown,Unknown,"Short call","Call dropped","The customer had tried to contact us yesterday but we could not connect. I tried to contact him but the phone is switched off.","Adler Chenro",No
78,2070,"2018-Nov-03 9:23:53","Unknown ",,"Outbound phone",0711806954,,Unknown,Unknown,"Short call","Call dropped","The customer had tried to contact us yesterday but we could not connect. I tried to call him today to offer some assistance but his phone is switched off.","Adler Chenro",No
79,2071,"2018-Nov-03 10:13:19","GATARA MUGO",,"Inbound Phone",0720561666,,,NAIROBI,Service,"Service Booking","SERVICE BOOKING","Fridah Kohogo",No
80,2072,"2018-Nov-03 12:05:22","Stephen Munene",,"Inbound Phone",0724771710,,Nyandarua,Kinangop,Sales,"Thika Motor Dealers Thika","The customer called one of our agents but there were some technical issues. I called the customer back and he is interested in purchasing a TFS 86 SC (HR + AC« AIR BAG) for driving off-road. Kindly assist.
","Adler Chenro",Yes
81,2073,"2018-Nov-03 12:15:42","Stephen Munene",,"Inbound Phone",0724771710,,Nyandarua,Kinangop,"Short call","Call dropped","The customer tried to contact us but the call dropped, he called back and was assisted by Adler.","Esther Wambui",No
82,2074,"2018-Nov-04 14:44:11","Unknown ",,"Inbound Phone",0708299801,,Unknown,Unknown,"Short call","Call dropped","The customer flashed I called back but no one answered.","Eunice Karanja",No
83,2078,"2018-Nov-05 7:08:52","Collins Bino",,"Inbound Phone",0738543815,,Nairobi,Buruburu,"Short call","Call dropped","The customer called the call was silent I called back but there was a network problem, Adler called him back to assist.","Eunice Karanja",No
84,2079,"2018-Nov-05 7:13:07","Collins Bino",,"Outbound phone",0738543815,,Nairobi,Buruburu,Parts,Enquiries,"The customer tried calling before but there was a network failure but after calling him back, he says that he would like to purchase a fan belt for his 4*2 D-max double cab. His vehicle Reg. No. is KCJ056X. He will be calling you during the day for details. Kindly assist.","Adler Chenro",Yes
85,2080,"2018-Nov-05 8:29:02","David Munyua",,USSD*824#,0720254253,,Nairobi,Nairobi,Parts,Enquiries,"The customer contacted us via our USSD code and he is interested in a 6HH1 engine part for his FRR bus. His vehicle's Reg. No. is KBK 915Q and he will be coming to your workshop today for more assistance. Kindly assist.","Adler Chenro",Yes
86,2081,"2018-Nov-05 8:41:37","David Munyua",,"Inbound Phone",0720254253,,Nairobi,Nairobi,"Short call","Call dropped","The customer called but the call was silent due to system issues but Adler assisted him.","Eunice Karanja",No
87,2082,"2018-Nov-05 8:44:49","Allan Simwa","Africa Commercial Motors Group Ltd",USSD*824#,0720657271/0733330355,,Kisumu,Kisumu,Sales,Enquiries,"Customer called after getting our missed call ,Allan had requested for a brochure of F-series Truck which he confirmed was sent to him.","Eunice Karanja",No
88,2088,"2018-Nov-05 12:27:37","WESTLINK ",WESTLINK,"Inbound Phone",0713633582,,,NAIROBI,Service,"Service Booking","SERVICE BOOKING","Fridah Kohogo",No
89,2089,"2018-Nov-05 14:46:09","Ian Kirwa",,"Inbound Phone",0715764443,,Nairobi,Nairobi,Promotion,"60 days repayment holiday","Ian wants to purchase a Dmax SC 4*2 under the 60-day repayment holiday promotion.","Eunique Akinyi",Yes
90,2090,"2018-Nov-05 15:41:03","Alex Mwangi",,"Inbound Phone",0721541307,,"Makueni ","Sultan Hamud.",Parts,Enquiries,"Mr Alex needed technical assistance, he wanted to know which vehicle model has stopper helper similar to the FTS ","Esther Wambui",No
91,2091,"2018-Nov-05 16:19:28","Alex Mwangi",,"Inbound Phone",0721541307,,"Makueni ","Sultan Hamud.",Parts,Enquiries,"Alex inquired about the price of an FTS helper stopper which i communicated to him. He said he will talk with his bosses then get back to us.","Eunique Akinyi",No
92,2092,"2018-Nov-05 16:26:33","Paul Muganda",,USSD*824#,0723314026,,Nairobi,Nairobi,Sales,Enquiries,"paul inquired about E-series brochure and the same was sent to him. He says he will get back to us.","Eunique Akinyi",No
93,2093,"2018-Nov-05 17:00:39","David Mugambi",,"Inbound Phone",0704659937,,Meru," Kanyakine.",Sales,"Associated Motors Limited Meru","The customer would like to purchase a single cab dmax, kindly contact him.","Esther Wambui",Yes
94,2094,"2018-Nov-06 7:32:39","Peter Gwandara",,"Inbound Phone",0721320001,,Kiambu,Kiambu,Promotion,"60 days repayment holiday","The customer is interested in purchasing a TFR 86 SC (HR + AC) this is with regards to the 60 days repayment holiday plan. Kindly assist.
","Adler Chenro",Yes
95,2096,"2018-Nov-06 8:16:04","Sofia ",,"Inbound Phone",0721510855,,Nairobi,Nairobi,"Short call","Non Isuzu related","The customer said she was calling someone to bring her water.","Eunice Karanja",No
96,2097,"2018-Nov-06 8:25:12","Sylvia Wanja",,"Inbound Phone",0718431625,,Embu,Embu,"Short call","Non Isuzu related","The customer called us and hang up her phone. I called her again and she did not have an interest in our product.","Adler Chenro",No
97,2098,"2018-Nov-06 8:47:09","Unknown ",,"Inbound Phone",Anonymous,,Unknown,Unknown,"Short call","Call dropped","The customer hangs up after calling","Eunice Karanja",No
98,2099,"2018-Nov-06 8:52:32","Michael Njomo",,"Inbound Phone",0732333000,,Nairobi,Nairobi,Sales,"Isuzu East Africa Nairobi","The customer is interested in a single cabin and he will be visiting Isuzu East Africa in the course of the day. Kindly assist","Eunice Karanja",Yes
99,2102,"2018-Nov-06 9:31:08","Victor Njuguna",,"Inbound Phone",0717175121,,Nairobi,Nairobi,"Short call","Call dropped","The customer flashed I called back but no one answered.","Eunice Karanja",No
100,2115,"2018-Nov-06 15:46:52","Victor Njuguna",,"Outbound phone",0717175121,,Nairobi,Nairobi,"Short call","Prank call","customer flashed. I called back and he said he had been contacted by us before.But none of us had contacted him.","Eunique Akinyi",No
101,2103,"2018-Nov-06 10:06:43","Bernard Githamo",,"Inbound Phone",0722785803,,Nairobi,Nairobi,"Short call","Call dropped","The customer called and I was not able to communicate with him because there was a technical error.","Adler Chenro",No
102,2107,"2018-Nov-06 10:34:44","Bernard Githamo",,"Outbound phone",0722785803,,Nairobi,Nairobi,Sales,"Isuzu East Africa Nairobi",,"Adler Chenro",No
103,2108,"2018-Nov-06 10:36:43","Bernard Githamo",,"Inbound Phone",0722785803,,Nairobi,Nairobi,Sales,"Isuzu East Africa Nairobi","The customer is interested in purchasing a TFR 86 SC (HR • AC. AIRBAG). He has said that he will walk into the offices soon for more details on the same. Kindly assist.
","Adler Chenro",Yes
104,2104,"2018-Nov-06 10:14:35","Erick Wangeshi",,"Inbound Phone",0723331004,,"kajiado ",Ngong,"Short call","Call dropped","The customer contacted us but we could not communicate due to a technical error with the system.","Adler Chenro",No
105,2106,"2018-Nov-06 10:31:25","Erick Wangeshi",,"Outbound phone",0723331004,,"kajiado ",Ngong,Sales,"Isuzu East Africa Nairobi","The customer is interested in a single cab 4*4 and is negotiating the price. kindly assist ","Eunice Karanja",Yes
106,2105,"2018-Nov-06 10:18:21","KEVIN OCHIENG",,"Inbound Phone",0722203671,,,NAIROBI,Service,"Service Booking","SERVICE BOOKING","Fridah Kohogo",No
107,2109,"2018-Nov-06 11:22:46","CHARLES MUTUA",,"Inbound Phone",0740188555,,,NAIROBI,Service,"Service Booking","LOOSE EXHAUST PIPE","Fridah Kohogo",No
108,2110,"2018-Nov-06 12:09:44","Kennedy Musiko",,"Inbound Phone",0711828103,,Nairobi,Nairobi,Service,"Isuzu East Africa Nairobi","The vehicle has covered 3000km and is not sure if it was brought in for the first free service. Kindly confirm if it was done to the service as i cannot see a tag on it. Vehicle number: GKB855T, MODEL: FTS 
","Eunice Karanja",Yes
109,2111,"2018-Nov-06 12:21:53","Kennedy Musiko",,"Inbound Phone",0711828103,,Nairobi,Nairobi,Service,Feedback,"The customer called to confirm feedback on the service status of his vehicle. He claims he is not seeing a tag of the after 1000km service. He wanted to inquire if the vehicle was already serviced. ","Adler Chenro",No
110,2112,"2018-Nov-06 12:27:25","Peter Mwangi",,"Inbound Phone",0726157487,,Nairobi,CBD,"Short call","Call dropped","customer called and the call was silent.On calling back he said he will call us back.","Eunique Akinyi",No
111,2113,"2018-Nov-06 12:52:55","Peter Mwangi",,"Inbound Phone",0726157487,,Nairobi,CBD,Promotion,"60 days repayment holiday","Peter wants to purchase a Dmax SC 4*2 under the 60-day repayment holiday promotion.","Eunique Akinyi",Yes
112,2114,"2018-Nov-06 15:16:04","Peter Maina",,"Inbound Phone",0722940804,,Naivasha,Naivasha,Sales,"Isuzu East Africa Nairobi","Mr Peter would like to purchase a single cab pick up, kindly contact him.","Esther Wambui",Yes
113,2116,"2018-Nov-06 16:06:17","Peter Karanja",,"Inbound Phone",0722317848,,Nairobi,Ruaka,Sales,"Thika Motor Dealers Ruaka","Mr Peter would like to purchase a single cabin pick up, kindly contact him.
","Esther Wambui",Yes
114,2117,"2018-Nov-06 16:39:47","Yvone Mengo",ACMG,USSD*824#,0722140378,"Automotive ",Nairobi,Nairobi,Enquiries,"Vehicle Prices","Yvonne wanted a brochure of  the n series truck which she was sent for.","Esther Wambui",No
115,2119,"2018-Nov-06 20:07:13","Unknown ",,"Inbound Phone",0711239991,,unknown,unknown,"Short call","Call dropped","The customer called but he was not speaking.","Esther Wambui",No
